%YAML 1.1
%TAG !u! tag:unity3d.com,2011:
--- !u!114 &11400000
MonoBehaviour:
  m_ObjectHideFlags: 0
  m_CorrespondingSourceObject: {fileID: 0}
  m_PrefabInstance: {fileID: 0}
  m_PrefabAsset: {fileID: 0}
  m_GameObject: {fileID: 0}
  m_Enabled: 1
  m_EditorHideFlags: 0
  m_Script: {fileID: 11500000, guid: 41710d233ab164b4bae2ba478f74b969, type: 3}
  m_Name: En Ametralladora Luz
  m_EditorClassIdentifier: 
  spread: 1
  varianteSpread: {x: 0.2, y: 0.2, z: 0.2}
  bala: {fileID: 344874057981283713, guid: 8afa683c1cd6f0f4ea350d36e83eb607, type: 3}
  delay: 0.5
  velocidad: 100
  capa:
    serializedVersion: 2
    m_Bits: 2147483647
