%YAML 1.1
%TAG !u! tag:unity3d.com,2011:
--- !u!114 &11400000
MonoBehaviour:
  m_ObjectHideFlags: 0
  m_CorrespondingSourceObject: {fileID: 0}
  m_PrefabInstance: {fileID: 0}
  m_PrefabAsset: {fileID: 0}
  m_GameObject: {fileID: 0}
  m_Enabled: 1
  m_EditorHideFlags: 0
  m_Script: {fileID: 11500000, guid: 41710d233ab164b4bae2ba478f74b969, type: 3}
  m_Name: Normal Luz
  m_EditorClassIdentifier: 
  spread: 0
  varianteSpread: {x: 0, y: 0, z: 0}
  bala: {fileID: 344874057981283713, guid: 901e917183d2fc84b90a00c75bf26734, type: 3}
  delay: 0.3
  velocidad: 100
  capa:
    serializedVersion: 2
    m_Bits: 2147483647
