%YAML 1.1
%TAG !u! tag:unity3d.com,2011:
--- !u!1 &2449068228086805974
GameObject:
  m_ObjectHideFlags: 0
  m_CorrespondingSourceObject: {fileID: 0}
  m_PrefabInstance: {fileID: 0}
  m_PrefabAsset: {fileID: 0}
  serializedVersion: 6
  m_Component:
  - component: {fileID: 2449068228086805980}
  - component: {fileID: 2449068228086805979}
  - component: {fileID: 2449068228086805978}
  - component: {fileID: 2449068228086805977}
  - component: {fileID: 2449068228086805976}
  - component: {fileID: 6038214625175406286}
  - component: {fileID: 2449068228086805975}
  - component: {fileID: 8258160544121623377}
  - component: {fileID: 2449068228086805981}
  - component: {fileID: 9073324625949972138}
  - component: {fileID: 4187121379698271485}
  - component: {fileID: 8081448473053407785}
  m_Layer: 6
  m_Name: Healing Grande
  m_TagString: Healing
  m_Icon: {fileID: 0}
  m_NavMeshLayer: 0
  m_StaticEditorFlags: 0
  m_IsActive: 1
--- !u!4 &2449068228086805980
Transform:
  m_ObjectHideFlags: 0
  m_CorrespondingSourceObject: {fileID: 0}
  m_PrefabInstance: {fileID: 0}
  m_PrefabAsset: {fileID: 0}
  m_GameObject: {fileID: 2449068228086805974}
  m_LocalRotation: {x: -0, y: -0, z: -0, w: 1}
  m_LocalPosition: {x: -261.73, y: -85.16, z: -135.5}
  m_LocalScale: {x: 1.6187, y: 3.2374, z: 1.6187}
  m_ConstrainProportionsScale: 0
  m_Children: []
  m_Father: {fileID: 0}
  m_RootOrder: 0
  m_LocalEulerAnglesHint: {x: 0, y: 0, z: 0}
--- !u!114 &2449068228086805979
MonoBehaviour:
  m_ObjectHideFlags: 0
  m_CorrespondingSourceObject: {fileID: 0}
  m_PrefabInstance: {fileID: 0}
  m_PrefabAsset: {fileID: 0}
  m_GameObject: {fileID: 2449068228086805974}
  m_Enabled: 1
  m_EditorHideFlags: 0
  m_Script: {fileID: 11500000, guid: 8233d90336aea43098adf6dbabd606a2, type: 3}
  m_Name: 
  m_EditorClassIdentifier: 
  m_MeshFormatVersion: 2
  m_Faces:
  - m_Indexes: 000000000100000002000000010000000300000002000000
    m_SmoothingGroup: 0
    m_Uv:
      m_UseWorldSpace: 0
      m_FlipU: 0
      m_FlipV: 0
      m_SwapUV: 0
      m_Fill: 1
      m_Scale: {x: 1, y: 1}
      m_Offset: {x: 0, y: 0}
      m_Rotation: 0
      m_Anchor: 9
    m_Material: {fileID: 0}
    m_SubmeshIndex: 0
    m_ManualUV: 0
    elementGroup: -1
    m_TextureGroup: -1
  - m_Indexes: 040000000500000006000000050000000700000006000000
    m_SmoothingGroup: 0
    m_Uv:
      m_UseWorldSpace: 0
      m_FlipU: 0
      m_FlipV: 0
      m_SwapUV: 0
      m_Fill: 1
      m_Scale: {x: 1, y: 1}
      m_Offset: {x: 0, y: 0}
      m_Rotation: 0
      m_Anchor: 9
    m_Material: {fileID: 0}
    m_SubmeshIndex: 0
    m_ManualUV: 0
    elementGroup: -1
    m_TextureGroup: -1
  - m_Indexes: 08000000090000000a000000090000000b0000000a000000
    m_SmoothingGroup: 0
    m_Uv:
      m_UseWorldSpace: 0
      m_FlipU: 0
      m_FlipV: 0
      m_SwapUV: 0
      m_Fill: 1
      m_Scale: {x: 1, y: 1}
      m_Offset: {x: 0, y: 0}
      m_Rotation: 0
      m_Anchor: 9
    m_Material: {fileID: 0}
    m_SubmeshIndex: 0
    m_ManualUV: 0
    elementGroup: -1
    m_TextureGroup: -1
  - m_Indexes: 0c0000000d0000000e0000000d0000000f0000000e000000
    m_SmoothingGroup: 0
    m_Uv:
      m_UseWorldSpace: 0
      m_FlipU: 0
      m_FlipV: 0
      m_SwapUV: 0
      m_Fill: 1
      m_Scale: {x: 1, y: 1}
      m_Offset: {x: 0, y: 0}
      m_Rotation: 0
      m_Anchor: 9
    m_Material: {fileID: 0}
    m_SubmeshIndex: 0
    m_ManualUV: 0
    elementGroup: -1
    m_TextureGroup: -1
  - m_Indexes: 100000001100000012000000110000001300000012000000
    m_SmoothingGroup: 0
    m_Uv:
      m_UseWorldSpace: 0
      m_FlipU: 0
      m_FlipV: 0
      m_SwapUV: 0
      m_Fill: 1
      m_Scale: {x: 1, y: 1}
      m_Offset: {x: 0, y: 0}
      m_Rotation: 0
      m_Anchor: 9
    m_Material: {fileID: 0}
    m_SubmeshIndex: 0
    m_ManualUV: 0
    elementGroup: -1
    m_TextureGroup: -1
  - m_Indexes: 140000001500000016000000150000001700000016000000
    m_SmoothingGroup: 0
    m_Uv:
      m_UseWorldSpace: 0
      m_FlipU: 0
      m_FlipV: 0
      m_SwapUV: 0
      m_Fill: 1
      m_Scale: {x: 1, y: 1}
      m_Offset: {x: 0, y: 0}
      m_Rotation: 0
      m_Anchor: 9
    m_Material: {fileID: 0}
    m_SubmeshIndex: 0
    m_ManualUV: 0
    elementGroup: -1
    m_TextureGroup: -1
  - m_Indexes: 18000000190000001a000000190000001b0000001a000000
    m_SmoothingGroup: 0
    m_Uv:
      m_UseWorldSpace: 0
      m_FlipU: 0
      m_FlipV: 0
      m_SwapUV: 0
      m_Fill: 1
      m_Scale: {x: 0.5, y: 1.999999}
      m_Offset: {x: -0, y: -0}
      m_Rotation: 270
      m_Anchor: 9
    m_Material: {fileID: 0}
    m_SubmeshIndex: 0
    m_ManualUV: 0
    elementGroup: -1
    m_TextureGroup: -1
  - m_Indexes: 2b0000002c0000002d00000028000000290000002a0000002d000000280000002a0000002d0000002a0000002b000000
    m_SmoothingGroup: 0
    m_Uv:
      m_UseWorldSpace: 0
      m_FlipU: 0
      m_FlipV: 0
      m_SwapUV: 0
      m_Fill: 1
      m_Scale: {x: 1, y: 1}
      m_Offset: {x: 0, y: 0}
      m_Rotation: 0
      m_Anchor: 9
    m_Material: {fileID: 2100000, guid: 31321ba15b8f8eb4c954353edc038b1d, type: 2}
    m_SubmeshIndex: 0
    m_ManualUV: 0
    elementGroup: 0
    m_TextureGroup: -1
  - m_Indexes: 2e0000002f0000003300000030000000330000002f000000320000003300000030000000310000003200000030000000
    m_SmoothingGroup: 0
    m_Uv:
      m_UseWorldSpace: 0
      m_FlipU: 0
      m_FlipV: 0
      m_SwapUV: 0
      m_Fill: 1
      m_Scale: {x: 1, y: 1}
      m_Offset: {x: 0, y: 0}
      m_Rotation: 0
      m_Anchor: 9
    m_Material: {fileID: 2100000, guid: 31321ba15b8f8eb4c954353edc038b1d, type: 2}
    m_SubmeshIndex: 0
    m_ManualUV: 0
    elementGroup: 0
    m_TextureGroup: -1
  - m_Indexes: 1c0000001d0000001e0000001d0000001f0000001e000000
    m_SmoothingGroup: 0
    m_Uv:
      m_UseWorldSpace: 0
      m_FlipU: 0
      m_FlipV: 0
      m_SwapUV: 0
      m_Fill: 1
      m_Scale: {x: 0.5, y: 1}
      m_Offset: {x: -0, y: -0}
      m_Rotation: 270
      m_Anchor: 9
    m_Material: {fileID: 0}
    m_SubmeshIndex: 0
    m_ManualUV: 0
    elementGroup: -1
    m_TextureGroup: -1
  - m_Indexes: 200000002100000022000000210000002300000022000000
    m_SmoothingGroup: 0
    m_Uv:
      m_UseWorldSpace: 0
      m_FlipU: 0
      m_FlipV: 0
      m_SwapUV: 0
      m_Fill: 1
      m_Scale: {x: 1, y: 2}
      m_Offset: {x: -0, y: -0.00000023841858}
      m_Rotation: 90
      m_Anchor: 9
    m_Material: {fileID: 0}
    m_SubmeshIndex: 0
    m_ManualUV: 0
    elementGroup: -1
    m_TextureGroup: -1
  - m_Indexes: 240000002500000026000000250000002700000026000000
    m_SmoothingGroup: 0
    m_Uv:
      m_UseWorldSpace: 0
      m_FlipU: 0
      m_FlipV: 0
      m_SwapUV: 0
      m_Fill: 1
      m_Scale: {x: 1, y: 2}
      m_Offset: {x: -0, y: 0.00000023841858}
      m_Rotation: 270
      m_Anchor: 9
    m_Material: {fileID: 0}
    m_SubmeshIndex: 0
    m_ManualUV: 0
    elementGroup: -1
    m_TextureGroup: -1
  m_SharedVertices:
  - m_Vertices: 000000000d00000016000000
  - m_Vertices: 010000000400000017000000
  - m_Vertices: 020000000f00000010000000
  - m_Vertices: 030000000600000011000000
  - m_Vertices: 050000000800000015000000
  - m_Vertices: 070000000a00000013000000
  - m_Vertices: 090000000c00000014000000
  - m_Vertices: 0b0000000e00000012000000
  - m_Vertices: 180000001d00000026000000
  - m_Vertices: 19000000270000002b000000
  - m_Vertices: 1a0000001f00000020000000
  - m_Vertices: 1b000000210000002a000000
  - m_Vertices: 250000002c0000002e000000
  - m_Vertices: 230000002900000031000000
  - m_Vertices: 1c000000240000002f000000
  - m_Vertices: 1e0000002200000030000000
  - m_Vertices: 2800000032000000
  - m_Vertices: 2d00000033000000
  m_SharedTextures: []
  m_Positions:
  - {x: -0.5, y: -0.75, z: 0.5}
  - {x: 0.5, y: -0.75, z: 0.5}
  - {x: -0.5, y: 0.75, z: 0.5}
  - {x: 0.5, y: 0.75, z: 0.5}
  - {x: 0.5, y: -0.75, z: 0.5}
  - {x: 0.5, y: -0.75, z: -0.5}
  - {x: 0.5, y: 0.75, z: 0.5}
  - {x: 0.5, y: 0.75, z: -0.5}
  - {x: 0.5, y: -0.75, z: -0.5}
  - {x: -0.5, y: -0.75, z: -0.5}
  - {x: 0.5, y: 0.75, z: -0.5}
  - {x: -0.5, y: 0.75, z: -0.5}
  - {x: -0.5, y: -0.75, z: -0.5}
  - {x: -0.5, y: -0.75, z: 0.5}
  - {x: -0.5, y: 0.75, z: -0.5}
  - {x: -0.5, y: 0.75, z: 0.5}
  - {x: -0.5, y: 0.75, z: 0.5}
  - {x: 0.5, y: 0.75, z: 0.5}
  - {x: -0.5, y: 0.75, z: -0.5}
  - {x: 0.5, y: 0.75, z: -0.5}
  - {x: -0.5, y: -0.75, z: -0.5}
  - {x: 0.5, y: -0.75, z: -0.5}
  - {x: -0.5, y: -0.75, z: 0.5}
  - {x: 0.5, y: -0.75, z: 0.5}
  - {x: 1.5, y: -0.24999988, z: 0.5}
  - {x: 1.5, y: 0.25000012, z: 0.5}
  - {x: -1.5, y: -0.25000012, z: 0.5}
  - {x: -1.5, y: 0.24999988, z: 0.5}
  - {x: 1.5, y: -0.24999988, z: -0.5}
  - {x: 1.5, y: -0.24999988, z: 0.5}
  - {x: -1.5, y: -0.25000012, z: -0.5}
  - {x: -1.5, y: -0.25000012, z: 0.5}
  - {x: -1.5, y: -0.25000012, z: 0.5}
  - {x: -1.5, y: 0.24999988, z: 0.5}
  - {x: -1.5, y: -0.25000012, z: -0.5}
  - {x: -1.5, y: 0.24999988, z: -0.5}
  - {x: 1.5, y: -0.24999988, z: -0.5}
  - {x: 1.5, y: 0.25000012, z: -0.5}
  - {x: 1.5, y: -0.24999988, z: 0.5}
  - {x: 1.5, y: 0.25000012, z: 0.5}
  - {x: -0.5018399, y: 0.24999997, z: -0.5}
  - {x: -1.5, y: 0.24999988, z: -0.5}
  - {x: -1.5, y: 0.24999988, z: 0.5}
  - {x: 1.5, y: 0.25000012, z: 0.5}
  - {x: 1.5, y: 0.25000012, z: -0.5}
  - {x: -0.24461031, y: 0.24999999, z: -0.5}
  - {x: 1.5, y: 0.25000012, z: -0.5}
  - {x: 1.5, y: -0.24999988, z: -0.5}
  - {x: -1.5, y: -0.25000012, z: -0.5}
  - {x: -1.5, y: 0.24999988, z: -0.5}
  - {x: -0.5018399, y: 0.24999997, z: -0.5}
  - {x: -0.24461031, y: 0.24999999, z: -0.5}
  m_Textures0:
  - {x: 0.5, y: -0.75}
  - {x: -0.5, y: -0.75}
  - {x: 0.5, y: 0.75}
  - {x: -0.5, y: 0.75}
  - {x: 0.5, y: -0.75}
  - {x: -0.5, y: -0.75}
  - {x: 0.5, y: 0.75}
  - {x: -0.5, y: 0.75}
  - {x: 0.5, y: -0.75}
  - {x: -0.5, y: -0.75}
  - {x: 0.5, y: 0.75}
  - {x: -0.5, y: 0.75}
  - {x: 0.5, y: -0.75}
  - {x: -0.5, y: -0.75}
  - {x: 0.5, y: 0.75}
  - {x: -0.5, y: 0.75}
  - {x: -0.5, y: 0.5}
  - {x: 0.5, y: 0.5}
  - {x: -0.5, y: -0.5}
  - {x: 0.5, y: -0.5}
  - {x: 0.5, y: -0.5}
  - {x: -0.5, y: -0.5}
  - {x: 0.5, y: 0.5}
  - {x: -0.5, y: 0.5}
  - {x: 0.49999952, y: -0.75}
  - {x: -0.5, y: -0.75}
  - {x: 0.5, y: 0.75}
  - {x: -0.49999952, y: 0.75}
  - {x: 0.5, y: -0.75}
  - {x: -0.5, y: -0.75}
  - {x: 0.5, y: 0.75}
  - {x: -0.5, y: 0.75}
  - {x: -0.49999997, y: 0.5}
  - {x: 0.5, y: 0.49999997}
  - {x: -0.5, y: -0.5}
  - {x: 0.49999997, y: -0.5}
  - {x: 0.5, y: -0.5}
  - {x: -0.5, y: -0.5}
  - {x: 0.5, y: 0.5}
  - {x: -0.5, y: 0.5}
  - {x: -0.5018399, y: -0.5}
  - {x: -1.5, y: -0.5}
  - {x: -1.5, y: 0.5}
  - {x: 1.5, y: 0.5}
  - {x: 1.5, y: -0.5}
  - {x: -0.2446103, y: -0.5}
  - {x: 1.5, y: 0.25000012}
  - {x: 1.5, y: -0.24999988}
  - {x: -1.5, y: -0.25000012}
  - {x: -1.5, y: 0.24999988}
  - {x: -0.5018399, y: 0.24999997}
  - {x: -0.24461031, y: 0.24999999}
  m_Textures2: []
  m_Textures3: []
  m_Tangents:
  - {x: -1, y: 0, z: 0, w: -1}
  - {x: -1, y: 0, z: 0, w: -1}
  - {x: -1, y: 0, z: 0, w: -1}
  - {x: -1, y: 0, z: 0, w: -1}
  - {x: 0, y: 0, z: 1, w: -1}
  - {x: 0, y: 0, z: 1, w: -1}
  - {x: 0, y: 0, z: 1, w: -1}
  - {x: 0, y: 0, z: 1, w: -1}
  - {x: 1, y: 0, z: 0, w: -1}
  - {x: 1, y: 0, z: 0, w: -1}
  - {x: 1, y: 0, z: 0, w: -1}
  - {x: 1, y: 0, z: 0, w: -1}
  - {x: 0, y: 0, z: -1, w: -1}
  - {x: 0, y: 0, z: -1, w: -1}
  - {x: 0, y: 0, z: -1, w: -1}
  - {x: 0, y: 0, z: -1, w: -1}
  - {x: 1, y: 0, z: 0, w: -1}
  - {x: 1, y: 0, z: 0, w: -1}
  - {x: 1, y: 0, z: 0, w: -1}
  - {x: 1, y: 0, z: 0, w: -1}
  - {x: -1, y: 0, z: 0, w: -1}
  - {x: -1, y: 0, z: 0, w: -1}
  - {x: -1, y: 0, z: 0, w: -1}
  - {x: -1, y: 0, z: 0, w: -1}
  - {x: 0, y: -1, z: 0, w: -1}
  - {x: 0, y: -1, z: 0, w: -1}
  - {x: 0, y: -1, z: 0, w: -1}
  - {x: 0, y: -1, z: 0, w: -1}
  - {x: 0, y: 0, z: -1, w: -1}
  - {x: 0, y: 0, z: -1, w: -1}
  - {x: 0, y: 0, z: -1, w: -1}
  - {x: 0, y: 0, z: -1, w: -1}
  - {x: 0, y: 1, z: 0.000000059604645, w: -1}
  - {x: 0, y: 1, z: 0.000000029802322, w: -1}
  - {x: 0, y: 1, z: 0.000000029802322, w: -1}
  - {x: 0, y: 1, z: 0, w: -1}
  - {x: 0, y: -1, z: 0, w: -1}
  - {x: 0, y: -1, z: 0, w: -1}
  - {x: 0, y: -1, z: 0, w: -1}
  - {x: 0, y: -1, z: 0, w: -1}
  - {x: 1, y: 0.0000000737506, z: 0, w: -1}
  - {x: 1, y: 0.00000008957177, z: 0, w: -1}
  - {x: 1, y: 0.00000007565802, z: 0, w: -1}
  - {x: 1, y: 0.00000007817208, z: 0, w: -1}
  - {x: 1, y: 0.000000076871295, z: 0, w: -1}
  - {x: 1, y: 0.00000007142453, z: 0, w: -1}
  - {x: 1, y: 0, z: 0, w: -1}
  - {x: 1, y: 0, z: 0, w: -1}
  - {x: 1, y: 0, z: 0, w: -1}
  - {x: 1, y: 0, z: 0, w: -1}
  - {x: 1, y: 0, z: 0, w: -1}
  - {x: 1, y: 0, z: 0, w: -1}
  m_Colors: []
  m_UnwrapParameters:
    m_HardAngle: 88
    m_PackMargin: 20
    m_AngleError: 8
    m_AreaError: 15
  m_PreserveMeshAssetOnDestroy: 0
  assetGuid: 
  m_Mesh: {fileID: 0}
  m_VersionIndex: 1898
  m_IsSelectable: 1
  m_SelectedFaces: 
  m_SelectedEdges: []
  m_SelectedVertices: 
--- !u!114 &2449068228086805978
MonoBehaviour:
  m_ObjectHideFlags: 0
  m_CorrespondingSourceObject: {fileID: 0}
  m_PrefabInstance: {fileID: 0}
  m_PrefabAsset: {fileID: 0}
  m_GameObject: {fileID: 2449068228086805974}
  m_Enabled: 1
  m_EditorHideFlags: 0
  m_Script: {fileID: 11500000, guid: 1ca002da428252441b92f28d83c8a65f, type: 3}
  m_Name: 
  m_EditorClassIdentifier: 
  m_Shape:
    rid: 1933969601377337344
  m_Size: {x: 1, y: 1.5, z: 1}
  m_Rotation: {x: 0, y: 0, z: 0, w: 1}
  m_PivotLocation: 0
  m_PivotPosition: {x: 0, y: 0, z: 0}
  m_UnmodifiedMeshVersion: 1872
  m_ShapeBox:
    m_Center: {x: 0, y: 0, z: 0}
    m_Extent: {x: 0.5, y: 0.75, z: 0.5}
  references:
    version: 2
    RefIds:
    - rid: 1933969601377337344
      type: {class: Cube, ns: UnityEngine.ProBuilder.Shapes, asm: Unity.ProBuilder}
--- !u!23 &2449068228086805977
MeshRenderer:
  m_ObjectHideFlags: 0
  m_CorrespondingSourceObject: {fileID: 0}
  m_PrefabInstance: {fileID: 0}
  m_PrefabAsset: {fileID: 0}
  m_GameObject: {fileID: 2449068228086805974}
  m_Enabled: 1
  m_CastShadows: 1
  m_ReceiveShadows: 1
  m_DynamicOccludee: 1
  m_StaticShadowCaster: 0
  m_MotionVectors: 1
  m_LightProbeUsage: 1
  m_ReflectionProbeUsage: 1
  m_RayTracingMode: 2
  m_RayTraceProcedural: 0
  m_RenderingLayerMask: 1
  m_RendererPriority: 0
  m_Materials:
  - {fileID: 2100000, guid: cf075cbd90ccc644e82e4c99e80aefc0, type: 2}
  m_StaticBatchInfo:
    firstSubMesh: 0
    subMeshCount: 0
  m_StaticBatchRoot: {fileID: 0}
  m_ProbeAnchor: {fileID: 0}
  m_LightProbeVolumeOverride: {fileID: 0}
  m_ScaleInLightmap: 1
  m_ReceiveGI: 1
  m_PreserveUVs: 0
  m_IgnoreNormalsForChartDetection: 0
  m_ImportantGI: 0
  m_StitchLightmapSeams: 1
  m_SelectedEditorRenderState: 2
  m_MinimumChartSize: 4
  m_AutoUVMaxDistance: 0.5
  m_AutoUVMaxAngle: 89
  m_LightmapParameters: {fileID: 0}
  m_SortingLayerID: 0
  m_SortingLayer: 0
  m_SortingOrder: 0
  m_AdditionalVertexStreams: {fileID: 0}
--- !u!33 &2449068228086805976
MeshFilter:
  m_ObjectHideFlags: 0
  m_CorrespondingSourceObject: {fileID: 0}
  m_PrefabInstance: {fileID: 0}
  m_PrefabAsset: {fileID: 0}
  m_GameObject: {fileID: 2449068228086805974}
  m_Mesh: {fileID: 0}
--- !u!65 &6038214625175406286
BoxCollider:
  m_ObjectHideFlags: 0
  m_CorrespondingSourceObject: {fileID: 0}
  m_PrefabInstance: {fileID: 0}
  m_PrefabAsset: {fileID: 0}
  m_GameObject: {fileID: 2449068228086805974}
  m_Material: {fileID: 0}
  m_IsTrigger: 0
  m_Enabled: 1
  serializedVersion: 2
  m_Size: {x: 4, y: 2, z: 4.5}
  m_Center: {x: 0, y: 0.02501133, z: 0}
--- !u!64 &2449068228086805975
MeshCollider:
  m_ObjectHideFlags: 0
  m_CorrespondingSourceObject: {fileID: 0}
  m_PrefabInstance: {fileID: 0}
  m_PrefabAsset: {fileID: 0}
  m_GameObject: {fileID: 2449068228086805974}
  m_Material: {fileID: 0}
  m_IsTrigger: 0
  m_Enabled: 1
  serializedVersion: 4
  m_Convex: 1
  m_CookingOptions: 30
  m_Mesh: {fileID: 0}
--- !u!54 &8258160544121623377
Rigidbody:
  m_ObjectHideFlags: 0
  m_CorrespondingSourceObject: {fileID: 0}
  m_PrefabInstance: {fileID: 0}
  m_PrefabAsset: {fileID: 0}
  m_GameObject: {fileID: 2449068228086805974}
  serializedVersion: 2
  m_Mass: 1
  m_Drag: 0
  m_AngularDrag: 0.05
  m_UseGravity: 1
  m_IsKinematic: 0
  m_Interpolate: 0
  m_Constraints: 112
  m_CollisionDetection: 0
--- !u!114 &2449068228086805981
MonoBehaviour:
  m_ObjectHideFlags: 0
  m_CorrespondingSourceObject: {fileID: 0}
  m_PrefabInstance: {fileID: 0}
  m_PrefabAsset: {fileID: 0}
  m_GameObject: {fileID: 2449068228086805974}
  m_Enabled: 1
  m_EditorHideFlags: 0
  m_Script: {fileID: 11500000, guid: 36bc17a106efbda42a6af08542e99fb8, type: 3}
  m_Name: 
  m_EditorClassIdentifier: 
  velocidadRotacion: 30
  eje: 1
--- !u!114 &9073324625949972138
MonoBehaviour:
  m_ObjectHideFlags: 0
  m_CorrespondingSourceObject: {fileID: 0}
  m_PrefabInstance: {fileID: 0}
  m_PrefabAsset: {fileID: 0}
  m_GameObject: {fileID: 2449068228086805974}
  m_Enabled: 1
  m_EditorHideFlags: 0
  m_Script: {fileID: 11500000, guid: 945b83ad0c38d9d4d9ffb59fcdfa7ac5, type: 3}
  m_Name: 
  m_EditorClassIdentifier: 
  tiempoSalida: 1.1
--- !u!114 &4187121379698271485
MonoBehaviour:
  m_ObjectHideFlags: 0
  m_CorrespondingSourceObject: {fileID: 0}
  m_PrefabInstance: {fileID: 0}
  m_PrefabAsset: {fileID: 0}
  m_GameObject: {fileID: 2449068228086805974}
  m_Enabled: 1
  m_EditorHideFlags: 0
  m_Script: {fileID: 11500000, guid: e9d9fcf8c0e15064f9ca9c28c5376a3c, type: 3}
  m_Name: 
  m_EditorClassIdentifier: 
  altura: 2000
  velocidad: 10
--- !u!114 &8081448473053407785
MonoBehaviour:
  m_ObjectHideFlags: 0
  m_CorrespondingSourceObject: {fileID: 0}
  m_PrefabInstance: {fileID: 0}
  m_PrefabAsset: {fileID: 0}
  m_GameObject: {fileID: 2449068228086805974}
  m_Enabled: 1
  m_EditorHideFlags: 0
  m_Script: {fileID: 11500000, guid: 3c24aaf1deef44f4f83f0de50d4e4847, type: 3}
  m_Name: 
  m_EditorClassIdentifier: 
  healing: 200
