%YAML 1.1
%TAG !u! tag:unity3d.com,2011:
--- !u!114 &11400000
MonoBehaviour:
  m_ObjectHideFlags: 0
  m_CorrespondingSourceObject: {fileID: 0}
  m_PrefabInstance: {fileID: 0}
  m_PrefabAsset: {fileID: 0}
  m_GameObject: {fileID: 0}
  m_Enabled: 1
  m_EditorHideFlags: 0
  m_Script: {fileID: 11500000, guid: 83202848104409d4eb5aaa2cba81d1a7, type: 3}
  m_Name: Dash
  m_EditorClassIdentifier: 
  SkillImg: {fileID: 21300000, guid: fc26b1595400eaf4a82b33bbd55cb63d, type: 3}
  KeyImg: {fileID: 21300000, guid: 31d61b17ec5b3bf47ba24b5932e43616, type: 3}
  velocidad: 85
  duracion: 0.3
  cooldown: 3
