%YAML 1.1
%TAG !u! tag:unity3d.com,2011:
--- !u!114 &11400000
MonoBehaviour:
  m_ObjectHideFlags: 0
  m_CorrespondingSourceObject: {fileID: 0}
  m_PrefabInstance: {fileID: 0}
  m_PrefabAsset: {fileID: 0}
  m_GameObject: {fileID: 0}
  m_Enabled: 1
  m_EditorHideFlags: 0
  m_Script: {fileID: 11500000, guid: 83202848104409d4eb5aaa2cba81d1a7, type: 3}
  m_Name: Disparo
  m_EditorClassIdentifier: 
  SkillImg: {fileID: 21300000, guid: dd2a452c4e26d704398937f03166fb76, type: 3}
  KeyImg: {fileID: 21300000, guid: 69b56c44a015d2f4c86628d530ddd768, type: 3}
  velocidad: 0
  duracion: 0
  cooldown: 0
