%YAML 1.1
%TAG !u! tag:unity3d.com,2011:
--- !u!78 &1
TagManager:
  serializedVersion: 2
  tags:
  - Enemigo
  - PuertaCerrada
  - Healing
  - Arma
  - Bala
  - Fuego
  - SiguienteHabitacion
  - Techo
  - BalaEnemigo
  - PuertaGanar
  - Jugador
  - Alfombra
  - Tienda
  - Moneda
  - BotonTienda
  - Escudo
  layers:
  - Default
  - TransparentFX
  - Ignore Raycast
  - Jugador
  - Water
  - UI
  - Outline
  - Outline Rojo
  - 
  - Suelo
  - Habitacion
  - Ignorar Trigger
  - Ignore Collision
  - Tienda
  - 
  - 
  - 
  - 
  - 
  - 
  - 
  - 
  - 
  - 
  - 
  - 
  - 
  - 
  - 
  - 
  - 
  - 
  m_SortingLayers:
  - name: Default
    uniqueID: 0
    locked: 0
