# Aspose.3D Wavefront OBJ Exporter
# Copyright 2004-2023 Aspose Pty Ltd.
# File created: 11/01/2023 14:22:29

mtllib material.lib

#
# object polySurface2
#

v -3.96116900444030768 4.83188819885253904 1.35117900371551512
v -4.23580598831176756 4.39612817764282224 1.35117900371551512
v -4.23580598831176756 4.39612817764282224 -1.46647894382476808
v -3.96116900444030768 4.83188819885253904 -1.46647894382476808
v 7.7100520133972168 -7.5343618392944336 1.35117900371551512
v 7.60575580596923832 -6.72015380859375 1.35117900371551512
v 7.60575580596923832 -6.72015380859375 -1.46647894382476808
v 7.7100520133972168 -7.5343618392944336 -1.46647894382476808
v -3.68042302131652832 5.23812484741210936 1.35117900371551512
v -3.68042302131652832 5.23812484741210936 -1.46647894382476808
v 7.48973321914672848 -5.917658805847168 1.35117900371551512
v 7.48973321914672848 -5.917658805847168 -1.46647894382476808
v -3.39400291442871096 5.61421012878417968 1.35117900371551512
v -3.39400291442871096 5.61421012878417968 -1.46647894382476808
v 7.36216115951538088 -5.1281142234802246 1.35117900371551512
v 7.36216115951538088 -5.1281142234802246 -1.46647894382476808
v -3.10234904289245606 5.95956420898437504 1.35117900371551512
v -3.10234904289245606 5.95956420898437504 -1.46647894382476808
v 7.2232370376586914 -4.35273599624633788 1.35117900371551512
v 7.2232370376586914 -4.35273599624633788 -1.46647894382476808
v -2.8059120178222656 6.27365493774414064 1.35117900371551512
v -2.8059120178222656 6.27365493774414064 -1.46647894382476808
v 7.07317495346069336 -3.59272003173828128 1.35117900371551512
v 7.07317495346069336 -3.59272003173828128 -1.46647894382476808
v -2.50514793395996096 6.55599784851074216 1.35117900371551512
v -2.50514793395996096 6.55599784851074216 -1.46647894382476808
v 6.91220712661743168 -2.84924101829528816 1.35117900371551512
v 6.91220712661743168 -2.84924101829528816 -1.46647894382476808
v -2.20052194595336916 6.8061561584472656 1.35117900371551512
v -2.20052194595336916 6.8061561584472656 -1.46647894382476808
v 6.74058198928833008 -2.1234450340270996 1.35117900371551512
v 6.74058198928833008 -2.1234450340270996 -1.46647894382476808
v -1.89250195026397712 7.02374601364135742 1.35117900371551512
v -1.89250195026397712 7.02374601364135742 -1.46647894382476808
v 6.55856323242187504 -1.41644597053527832 1.35117900371551512
v 6.55856323242187504 -1.41644597053527832 -1.46647894382476808
v -1.58156394958496096 7.20843076705932616 1.35117900371551512
v -1.58156394958496096 7.20843076705932616 -1.46647894382476808
v 6.3664298057556152 -0.72933697700500496 1.35117900371551512
v 6.3664298057556152 -0.72933697700500496 -1.46647894382476808
v -1.2681879997253418 7.35992813110351564 1.35117900371551512
v -1.2681879997253418 7.35992813110351564 -1.46647894382476808
v 6.16448116302490234 -0.06317734718322754 1.35117900371551512
v 6.16448116302490234 -0.06317734718322754 -1.46647894382476808
v -0.9528555870056152 7.47800302505493168 1.35117900371551512
v -0.9528555870056152 7.47800302505493168 -1.46647894382476808
v 5.95302677154541008 0.58100301027297976 1.35117900371551512
v 5.95302677154541008 0.58100301027297976 -1.46647894382476808
v -0.63605427742004392 7.5624690055847168 1.35117900371551512
v -0.63605427742004392 7.5624690055847168 -1.46647894382476808
v 5.7323927879333496 1.20221495628356932 1.35117900371551512
v 5.7323927879333496 1.20221495628356932 -1.46647894382476808
v -0.31827241182327272 7.61320304870605472 1.35117900371551512
v -0.31827241182327272 7.61320304870605472 -1.46647894382476808
v 5.50292205810546872 1.79949700832366944 1.35117900371551512
v 5.50292205810546872 1.79949700832366944 -1.46647894382476808
v 3.543607078881905E-07 7.6301231384277344 1.35117900371551512
v 3.543607078881905E-07 7.6301231384277344 -1.46647894382476808
v 5.26496410369873048 2.37193298339843752 1.35117900371551512
v 5.26496410369873048 2.37193298339843752 -1.46647894382476808
v 0.31827211380004884 7.61320304870605472 1.35117900371551512
v 0.31827211380004884 7.61320304870605472 -1.46647894382476808
v 5.01888799667358398 2.91863393783569328 1.35117900371551512
v 5.01888799667358398 2.91863393783569328 -1.46647894382476808
v 0.6360540986061096 7.5624690055847168 1.35117900371551512
v 0.6360540986061096 7.5624690055847168 -1.46647894382476808
v 4.76507377624511712 3.43876194953918456 1.35117900371551512
v 4.76507377624511712 3.43876194953918456 -1.46647894382476808
v 0.95285528898239136 7.47800302505493168 1.35117900371551512
v 0.95285528898239136 7.47800302505493168 -1.46647894382476808
v 4.5039119720458984 3.93151497840881344 1.35117900371551512
v 4.5039119720458984 3.93151497840881344 -1.46647894382476808
v 1.2681870460510254 7.35992813110351564 1.35117900371551512
v 1.2681870460510254 7.35992813110351564 -1.46647894382476808
v 4.23580598831176756 4.39612817764282224 1.35117900371551512
v 4.23580598831176756 4.39612817764282224 -1.46647894382476808
v 1.58156394958496096 7.20843076705932616 1.35117900371551512
v 1.58156394958496096 7.20843076705932616 -1.46647894382476808
v 3.9611680507659912 4.83189010620117184 1.35117900371551512
v 3.9611680507659912 4.83189010620117184 -1.46647894382476808
v 1.89250195026397712 7.02374601364135742 1.35117900371551512
v 1.89250195026397712 7.02374601364135742 -1.46647894382476808
v 3.68042206764221192 5.2381272315979004 1.35117900371551512
v 3.68042206764221192 5.2381272315979004 -1.46647894382476808
v 2.20052099227905272 6.8061561584472656 1.35117900371551512
v 2.20052099227905272 6.8061561584472656 -1.46647894382476808
v 3.39400410652160648 5.61420822143554688 1.35117900371551512
v 3.39400410652160648 5.61420822143554688 -1.46647894382476808
v 2.50514698028564456 6.55599784851074216 1.35117900371551512
v 2.50514698028564456 6.55599784851074216 -1.46647894382476808
v 3.10234904289245606 5.95956420898437504 1.35117900371551512
v 3.10234904289245606 5.95956420898437504 -1.46647894382476808
v 2.80591106414794928 6.27365493774414064 1.35117900371551512
v 2.80591106414794928 6.27365493774414064 -1.46647894382476808
v -79.47248077392578128 114.92610168457031248 1.35117900371551512
v 82.30732727050781248 114.92610168457031248 1.35117900371551512
v 82.30732727050781248 114.92610168457031248 -1.46647894382476808
v -79.47248077392578128 114.92610168457031248 -1.46647894382476808
v 82.30732727050781248 -16.19588088989257812 1.35117900371551512
v 82.30732727050781248 -16.19588088989257812 -1.46647894382476808
v -79.47248077392578128 -16.19588088989257812 -1.46647894382476808
v -8.10682868957519532 -14.3161296844482422 -1.46647894382476808
v -6.10682916641235352 -14.3161296844482422 -1.46647894382476808
v 8.10682868957519532 -14.3161296844482422 -1.46647894382476808
v 8.10057830810546876 -13.45452022552490232 -1.46647894382476808
v 8.08183860778808594 -12.5942401885986328 -1.46647894382476808
v 8.05063629150390625 -11.73661994934082032 -1.46647894382476808
v 8.0070199966430664 -10.88298034667968752 -1.46647894382476808
v 7.95105791091918944 -10.03462982177734375 -1.46647894382476808
v 7.882835865020752 -9.19287586212158204 -1.46647894382476808
v 7.80246019363403328 -8.35902595520019532 -1.46647894382476808
v 7.80246019363403328 -8.35902595520019532 1.35117900371551512
v 7.882835865020752 -9.19287586212158204 1.35117900371551512
v 7.95105791091918944 -10.03462982177734375 1.35117900371551512
v 8.0070199966430664 -10.88298034667968752 1.35117900371551512
v 8.05063629150390625 -11.73661994934082032 1.35117900371551512
v 8.08183860778808594 -12.5942401885986328 1.35117900371551512
v 8.10057830810546876 -13.45452022552490232 1.35117900371551512
v 8.10682868957519532 -14.3161296844482422 1.35117900371551512
v 6.10682916641235352 -14.3161296844482422 1.35117900371551512
v -8.10682868957519532 -14.3161296844482422 1.35117900371551512
v -79.47248077392578128 -16.19588088989257812 1.35117900371551512
v -4.50391292572021488 3.93151307106018064 1.35117900371551512
v -4.50391292572021488 3.93151307106018064 -1.46647894382476808
v -4.76507520675659184 3.43876194953918456 1.35117900371551512
v -4.76507520675659184 3.43876194953918456 -1.46647894382476808
v -5.01888799667358398 2.91863393783569328 1.35117900371551512
v -5.01888799667358398 2.91863393783569328 -1.46647894382476808
v -5.26496410369873048 2.37193298339843752 1.35117900371551512
v -5.26496410369873048 2.37193298339843752 -1.46647894382476808
v -5.50292205810546872 1.79949700832366944 1.35117900371551512
v -5.50292205810546872 1.79949700832366944 -1.46647894382476808
v -5.7323927879333496 1.20221495628356932 1.35117900371551512
v -5.7323927879333496 1.20221495628356932 -1.46647894382476808
v -5.95302677154541008 0.58100491762161256 1.35117900371551512
v -5.95302677154541008 0.58100491762161256 -1.46647894382476808
v -6.16448116302490234 -0.06317734718322754 1.35117900371551512
v -6.16448116302490234 -0.06317734718322754 -1.46647894382476808
v -6.3664298057556152 -0.72933602333068848 1.35117900371551512
v -6.3664298057556152 -0.72933602333068848 -1.46647894382476808
v -6.5585618019104004 -1.41644501686096192 1.35117900371551512
v -6.5585618019104004 -1.41644501686096192 -1.46647894382476808
v -6.74058198928833008 -2.1234428882598877 1.35117900371551512
v -6.74058198928833008 -2.1234428882598877 -1.46647894382476808
v -6.912208080291748 -2.84924197196960448 1.35117900371551512
v -6.912208080291748 -2.84924197196960448 -1.46647894382476808
v -7.07317590713500977 -3.59272289276123048 1.35117900371551512
v -7.07317590713500977 -3.59272289276123048 -1.46647894382476808
v -7.2232379913330078 -4.35273694992065428 1.35117900371551512
v -7.2232379913330078 -4.35273694992065428 -1.46647894382476808
v -7.36216115951538088 -5.12811517715454102 1.35117900371551512
v -7.36216115951538088 -5.12811517715454102 -1.46647894382476808
v -7.48973321914672848 -5.91766023635864256 1.35117900371551512
v -7.48973321914672848 -5.91766023635864256 -1.46647894382476808
v -7.60575723648071288 -6.7201547622680664 1.35117900371551512
v -7.60575723648071288 -6.7201547622680664 -1.46647894382476808
v -7.7100520133972168 -7.5343618392944336 1.35117900371551512
v -7.7100520133972168 -7.5343618392944336 -1.46647894382476808
v -7.80246019363403328 -8.35902690887451172 1.35117900371551512
v -7.80246019363403328 -8.35902690887451172 -1.46647894382476808
v -7.882835865020752 -9.19287586212158204 1.35117900371551512
v -7.882835865020752 -9.19287586212158204 -1.46647894382476808
v -7.95105791091918944 -10.03462982177734375 1.35117900371551512
v -7.95105791091918944 -10.03462982177734375 -1.46647894382476808
v -8.0070199966430664 -10.88298034667968752 1.35117900371551512
v -8.0070199966430664 -10.88298034667968752 -1.46647894382476808
v -8.05063629150390625 -11.73661994934082032 1.35117900371551512
v -8.05063629150390625 -11.73661994934082032 -1.46647894382476808
v -8.08183765411376953 -12.5942401885986328 1.35117900371551512
v -8.08183765411376953 -12.5942401885986328 -1.46647894382476808
v -8.10057830810546876 -13.45452022552490232 1.35117900371551512
v -8.10057830810546876 -13.45452022552490232 -1.46647894382476808
# 172 vertices

vn 0.83476197719573968 -0.55061101913452152 0
vn 0.85643416643142704 -0.51625621318817136 0
vn 0.85643416643142704 -0.51625621318817136 0
vn 0.83476197719573968 -0.55061101913452152 0
vn -0.99287396669387824 -0.1191692054271698 0
vn -0.99084162712097168 -0.13502851128578186 0
vn -0.99084162712097168 -0.13502851128578186 0
vn -0.99287396669387824 -0.1191692054271698 0
vn 0.8096187710762024 -0.58695596456527712 0
vn 0.83476197719573968 -0.55061101913452152 0
vn 0.83476197719573968 -0.55061101913452152 0
vn 0.8096187710762024 -0.58695596456527712 0
vn -0.99084162712097168 -0.13502851128578186 0
vn -0.98849588632583616 -0.15124782919883728 0
vn -0.98849588632583616 -0.15124782919883728 0
vn -0.99084162712097168 -0.13502851128578186 0
vn 0.7803818583488464 -0.625303328037262 0
vn 0.8096187710762024 -0.58695596456527712 0
vn 0.8096187710762024 -0.58695596456527712 0
vn 0.7803818583488464 -0.625303328037262 0
vn -0.98849588632583616 -0.15124782919883728 0
vn -0.98580801486968992 -0.16787657141685486 0
vn -0.98580801486968992 -0.16787657141685486 0
vn -0.98849588632583616 -0.15124782919883728 0
vn 0.74633067846298224 -0.66557538509368896 0
vn 0.7803818583488464 -0.625303328037262 0
vn 0.7803818583488464 -0.625303328037262 0
vn 0.74633067846298224 -0.66557538509368896 0
vn -0.98580801486968992 -0.16787657141685486 0
vn -0.98274445533752448 -0.1849685162305832 0
vn -0.98274445533752448 -0.1849685162305832 0
vn -0.98580801486968992 -0.16787657141685486 0
vn 0.70665192604064944 -0.70756137371063232 0
vn 0.74633067846298224 -0.66557538509368896 0
vn 0.74633067846298224 -0.66557538509368896 0
vn 0.70665192604064944 -0.70756137371063232 0
vn -0.98274445533752448 -0.1849685162305832 0
vn -0.97926521301269536 -0.20258213579654692 0
vn -0.97926521301269536 -0.20258213579654692 0
vn -0.98274445533752448 -0.1849685162305832 0
vn 0.66045862436294552 -0.7508623600006104 0
vn 0.70665192604064944 -0.70756137371063232 0
vn 0.70665192604064944 -0.70756137371063232 0
vn 0.66045862436294552 -0.7508623600006104 0
vn -0.97926521301269536 -0.20258213579654692 0
vn -0.97532373666763312 -0.2207792103290558 0
vn -0.97532373666763312 -0.2207792103290558 0
vn -0.97926521301269536 -0.20258213579654692 0
vn 0.60683935880661008 -0.79482442140579216 0
vn 0.66045862436294552 -0.7508623600006104 0
vn 0.66045862436294552 -0.7508623600006104 0
vn 0.60683935880661008 -0.79482442140579216 0
vn -0.97532373666763312 -0.2207792103290558 0
vn -0.97086447477340704 -0.23962950706481932 0
vn -0.97086447477340704 -0.23962950706481932 0
vn -0.97532373666763312 -0.2207792103290558 0
vn 0.54494249820709232 -0.83847337961196896 0
vn 0.60683935880661008 -0.79482442140579216 0
vn 0.60683935880661008 -0.79482442140579216 0
vn 0.54494249820709232 -0.83847337961196896 0
vn -0.97086447477340704 -0.23962950706481932 0
vn -0.96582144498825072 -0.25920838117599488 0
vn -0.96582144498825072 -0.25920838117599488 0
vn -0.97086447477340704 -0.23962950706481932 0
vn 0.47411412000656128 -0.88046342134475712 0
vn 0.54494249820709232 -0.83847337961196896 0
vn 0.54494249820709232 -0.83847337961196896 0
vn 0.47411412000656128 -0.88046342134475712 0
vn -0.96582144498825072 -0.25920838117599488 0
vn -0.96011853218078608 -0.27959361672401428 0
vn -0.96011853218078608 -0.27959361672401428 0
vn -0.96582144498825072 -0.25920838117599488 0
vn 0.39407458901405336 -0.91907840967178352 0
vn 0.47411412000656128 -0.88046342134475712 0
vn 0.47411412000656128 -0.88046342134475712 0
vn 0.39407458901405336 -0.91907840967178352 0
vn -0.96011853218078608 -0.27959361672401428 0
vn -0.95366394519805904 -0.30087399482727052 0
vn -0.95366394519805904 -0.30087399482727052 0
vn -0.96011853218078608 -0.27959361672401428 0
vn 0.30512839555740356 -0.9523112177848816 0
vn 0.39407458901405336 -0.91907840967178352 0
vn 0.39407458901405336 -0.91907840967178352 0
vn 0.30512839555740356 -0.9523112177848816 0
vn -0.95366394519805904 -0.30087399482727052 0
vn -0.9463491439819336 -0.32314613461494444 0
vn -0.9463491439819336 -0.32314613461494444 0
vn -0.95366394519805904 -0.30087399482727052 0
vn 0.20837649703025816 -0.9780486822128296 0
vn 0.30512839555740356 -0.9523112177848816 0
vn 0.30512839555740356 -0.9523112177848816 0
vn 0.20837649703025816 -0.9780486822128296 0
vn -0.9463491439819336 -0.32314613461494444 0
vn -0.9380465745925904 -0.34650924801826476 0
vn -0.9380465745925904 -0.34650924801826476 0
vn -0.9463491439819336 -0.32314613461494444 0
vn 0.10576865822076798 -0.9943907260894776 0
vn 0.20837649703025816 -0.9780486822128296 0
vn 0.20837649703025816 -0.9780486822128296 0
vn 0.10576865822076798 -0.9943907260894776 0
vn -0.9380465745925904 -0.34650924801826476 0
vn -0.92860209941864016 -0.37107697129249576 0
vn -0.92860209941864016 -0.37107697129249576 0
vn -0.9380465745925904 -0.34650924801826476 0
vn -2.6445583500844805E-09 -1 0
vn 0.10576865822076798 -0.9943907260894776 0
vn 0.10576865822076798 -0.9943907260894776 0
vn -2.6445583500844805E-09 -1 0
vn -0.92860209941864016 -0.37107697129249576 0
vn -0.91783225536346432 -0.39696836471557616 0
vn -0.91783225536346432 -0.39696836471557616 0
vn -0.92860209941864016 -0.37107697129249576 0
vn -0.10576878488063812 -0.9943906664848328 0
vn -2.6445583500844805E-09 -1 0
vn -2.6445583500844805E-09 -1 0
vn -0.10576878488063812 -0.9943906664848328 0
vn -0.91783225536346432 -0.39696836471557616 0
vn -0.9055195450782776 -0.42430460453033448 0
vn -0.9055195450782776 -0.42430460453033448 0
vn -0.91783225536346432 -0.39696836471557616 0
vn -0.208376482129097 -0.9780486822128296 0
vn -0.10576878488063812 -0.9943906664848328 0
vn -0.10576878488063812 -0.9943906664848328 0
vn -0.208376482129097 -0.9780486822128296 0
vn -0.9055195450782776 -0.42430460453033448 0
vn -0.89140218496322624 -0.453213095664978 0
vn -0.89140218496322624 -0.453213095664978 0
vn -0.9055195450782776 -0.42430460453033448 0
vn -0.30512872338294984 -0.9523111581802368 0
vn -0.208376482129097 -0.9780486822128296 0
vn -0.208376482129097 -0.9780486822128296 0
vn -0.30512872338294984 -0.9523111581802368 0
vn -0.89140218496322624 -0.453213095664978 0
vn -0.87516540288925168 -0.483823835849762 0
vn -0.87516540288925168 -0.483823835849762 0
vn -0.89140218496322624 -0.453213095664978 0
vn -0.39407446980476376 -0.91907852888107296 0
vn -0.30512872338294984 -0.9523111581802368 0
vn -0.30512872338294984 -0.9523111581802368 0
vn -0.39407446980476376 -0.91907852888107296 0
vn -0.87516540288925168 -0.483823835849762 0
vn -0.85643416643142704 -0.51625621318817136 0
vn -0.85643416643142704 -0.51625621318817136 0
vn -0.87516540288925168 -0.483823835849762 0
vn -0.47411352396011352 -0.88046371936798096 0
vn -0.39407446980476376 -0.91907852888107296 0
vn -0.39407446980476376 -0.91907852888107296 0
vn -0.47411352396011352 -0.88046371936798096 0
vn -0.85643416643142704 -0.51625621318817136 0
vn -0.83476221561431888 -0.5506106615066528 0
vn -0.83476221561431888 -0.5506106615066528 0
vn -0.85643416643142704 -0.51625621318817136 0
vn -0.5449431538581848 -0.83847296237945552 0
vn -0.47411352396011352 -0.88046371936798096 0
vn -0.47411352396011352 -0.88046371936798096 0
vn -0.5449431538581848 -0.83847296237945552 0
vn -0.83476221561431888 -0.5506106615066528 0
vn -0.8096186518669128 -0.58695626258850096 0
vn -0.8096186518669128 -0.58695626258850096 0
vn -0.83476221561431888 -0.5506106615066528 0
vn -0.60684001445770264 -0.79482406377792352 0
vn -0.5449431538581848 -0.83847296237945552 0
vn -0.5449431538581848 -0.83847296237945552 0
vn -0.60684001445770264 -0.79482406377792352 0
vn -0.8096186518669128 -0.58695626258850096 0
vn -0.78038132190704352 -0.62530386447906496 0
vn -0.78038132190704352 -0.62530386447906496 0
vn -0.8096186518669128 -0.58695626258850096 0
vn -0.66045862436294552 -0.7508623600006104 0
vn -0.60684001445770264 -0.79482406377792352 0
vn -0.60684001445770264 -0.79482406377792352 0
vn -0.66045862436294552 -0.7508623600006104 0
vn -0.78038132190704352 -0.62530386447906496 0
vn -0.7463302612304688 -0.6655757427215576 0
vn -0.7463302612304688 -0.6655757427215576 0
vn -0.78038132190704352 -0.62530386447906496 0
vn -0.70665127038955688 -0.70756191015243528 0
vn -0.66045862436294552 -0.7508623600006104 0
vn -0.66045862436294552 -0.7508623600006104 0
vn -0.70665127038955688 -0.70756191015243528 0
vn -0.7463302612304688 -0.6655757427215576 0
vn -0.70665127038955688 -0.70756191015243528 0
vn -0.70665127038955688 -0.70756191015243528 0
vn -0.7463302612304688 -0.6655757427215576 0
vn 0 0.9999999403953552 0
vn 0 0.9999999403953552 0
vn 0 0.9999999403953552 0
vn 0 0.9999999403953552 0
vn 1 0 0
vn 1 0 0
vn 1 0 0
vn 1 0 0
vn 0 0 -1
vn 7.570664650735637E-10 0 -1
vn 1.5404675148336655E-13 0 -1
vn 1.5404675148336655E-13 0 -1
vn 0 0 -1
vn 3.13532066975597E-09 0 -1
vn 0 0 -1
vn 0 0 -1
vn 3.13532066975597E-09 0 -1
vn 0 0 -1
vn 1.5770237338230686E-09 0 -1
vn 3.13532066975597E-09 0 -1
vn 3.13532066975597E-09 0 -1
vn 1.5770237338230686E-09 0 -1
vn 7.570664650735637E-10 0 -1
vn 1.5770237338230686E-09 0 -1
vn -3.882985595282662E-07 0 -0.9999999403953552
vn 7.570664650735637E-10 0 -1
vn -3.882985595282662E-07 0 -0.9999999403953552
vn 0 0 -1
vn 7.570664650735637E-10 0 -1
vn 0 0 -1
vn 0 0 -1
vn 7.570664650735637E-10 0 -1
vn 0 0 -1
vn 8.381820038039223E-08 0 -0.9999999403953552
vn 7.570664650735637E-10 0 -1
vn 8.381820038039223E-08 0 -0.9999999403953552
vn 3.492821178951999E-07 0 -0.9999999403953552
vn 7.570664650735637E-10 0 -1
vn 3.492821178951999E-07 0 -0.9999999403953552
vn 0 0 -1
vn 7.570664650735637E-10 0 -1
vn 0 0 -1
vn 0 0 -1
vn 7.570664650735637E-10 0 -1
vn 0 0 -1
vn 0 0 -0.9999999403953552
vn 7.570664650735637E-10 0 -1
vn 0 0 -0.9999999403953552
vn 0 0 -1
vn 7.570664650735637E-10 0 -1
vn 0 0 -1
vn 0 0 -1
vn 7.570664650735637E-10 0 -1
vn 0 0 -1
vn 0 0 -0.9999999403953552
vn 7.570664650735637E-10 0 -1
vn 0 0 -0.9999999403953552
vn 0 0 -1
vn 7.570664650735637E-10 0 -1
vn 0 0 -1
vn 0 0 -1
vn 7.570664650735637E-10 0 -1
vn 0 0 -1
vn 0 0 -1
vn 7.570664650735637E-10 0 -1
vn 0 0 -1
vn 0 0 -0.9999999403953552
vn 7.570664650735637E-10 0 -1
vn 0 0 -0.9999999403953552
vn 0 0 -1
vn 7.570664650735637E-10 0 -1
vn 0 0 -1
vn 1.1370062935611713E-07 0 -1
vn 7.570664650735637E-10 0 -1
vn 1.1370062935611713E-07 0 -1
vn 1.7780891425900336E-07 0 -1
vn 7.570664650735637E-10 0 -1
vn 1.7780891425900336E-07 0 -1
vn -2.945943720078503E-07 0 -1
vn 7.570664650735637E-10 0 -1
vn -2.945943720078503E-07 0 -1
vn 0 0 -0.9999999403953552
vn 7.570664650735637E-10 0 -1
vn 0 0 -0.9999999403953552
vn 0 0 -0.9999999403953552
vn 7.570664650735637E-10 0 -1
vn 0 0 -0.9999999403953552
vn 0 0 -0.9999999403953552
vn 7.570664650735637E-10 0 -1
vn 0 0 -0.9999999403953552
vn 0 0 -1
vn 7.570664650735637E-10 0 -1
vn 0 0 -1
vn 0 0 -1
vn 7.570664650735637E-10 0 -1
vn 0 0 -1
vn 1.6309824957261299E-07 0 -1
vn 7.570664650735637E-10 0 -1
vn 1.6309824957261299E-07 0 -1
vn 1.2128265325372922E-07 0 -1
vn 7.570664650735637E-10 0 -1
vn 1.2128265325372922E-07 0 -1
vn -2.948120538803778E-07 0 -1
vn 7.570664650735637E-10 0 -1
vn -2.948120538803778E-07 0 -1
vn 0 0 -0.9999999403953552
vn 7.570664650735637E-10 0 -1
vn 0 0 -0.9999999403953552
vn 0 0 -1
vn 7.570664650735637E-10 0 -1
vn 0 0 -1
vn 0 0 -1
vn 7.570664650735637E-10 0 -1
vn 0 0 -1
vn -2.4545011001464445E-07 0 -0.9999999403953552
vn 7.570664650735637E-10 0 -1
vn -2.4545011001464445E-07 0 -0.9999999403953552
vn -3.022183392431543E-08 0 -1
vn 7.570664650735637E-10 0 -1
vn -3.022183392431543E-08 0 -1
vn 2.9670133017134503E-07 0 -1
vn 7.570664650735637E-10 0 -1
vn 2.9670133017134503E-07 0 -1
vn 0 0 -1
vn 7.570664650735637E-10 0 -1
vn 0 0 -1
vn 1.5404675148336655E-13 0 -1
vn -4.012520093965577E-09 0 -1
vn -4.012520093965577E-09 0 -1
vn 1.5404675148336655E-13 0 -1
vn 2.4373816298606243E-09 0 -0.9999999403953552
vn 2.4373816298606243E-09 0 -0.9999999403953552
vn 1.5404675148336655E-13 0 -1
vn 3.3869054227864126E-09 0 -1
vn 0 0 -1
vn 0 0 -1
vn 7.570664650735637E-10 0 -1
vn 3.3869054227864126E-09 0 -1
vn 1.5404675148336655E-13 0 -1
vn -1.8037668025883136E-09 0 -1
vn -1.8037668025883136E-09 0 -1
vn 1.5404675148336655E-13 0 -1
vn -6.558888543395369E-09 0 -0.9999999403953552
vn -6.558888543395369E-09 0 -0.9999999403953552
vn 1.5404675148336655E-13 0 -1
vn -8.24201928928403E-10 0 -1
vn 0 0 -1
vn 0 0 -0.9999999403953552
vn 7.570664650735637E-10 0 -1
vn -8.24201928928403E-10 0 -1
vn 1.5404675148336655E-13 0 -1
vn 1.2731264931176156E-08 0 -1
vn 1.2731264931176156E-08 0 -1
vn 1.5404675148336655E-13 0 -1
vn 4.6151238386471505E-09 0 -1
vn 4.6151238386471505E-09 0 -1
vn 1.5404675148336655E-13 0 -1
vn 5.598285390817637E-09 0 -1
vn 5.598285390817637E-09 0 -1
vn 1.5404675148336655E-13 0 -1
vn 5.2029998087732565E-09 0 -1
vn 0 0 -0.9999999403953552
vn 0 0 -1
vn 7.570664650735637E-10 0 -1
vn 5.2029998087732565E-09 0 -1
vn 1.5404675148336655E-13 0 -1
vn -5.232007183053611E-08 0 -1
vn -5.232007183053611E-08 0 -1
vn 1.5404675148336655E-13 0 -1
vn -7.514156408205963E-09 0 -1
vn -7.514156408205963E-09 0 -1
vn 1.5404675148336655E-13 0 -1
vn 2.864836723404096E-08 0 -1
vn 0 0 -1
vn 0 0 -1
vn 7.570664650735637E-10 0 -1
vn 2.864836723404096E-08 0 -1
vn 1.5404675148336655E-13 0 -1
vn 9.910482212660554E-09 0 -1
vn 9.910482212660554E-09 0 -1
vn 1.5404675148336655E-13 0 -1
vn 2.634291540459799E-08 0 -1
vn 2.634291540459799E-08 0 -1
vn 1.5404675148336655E-13 0 -1
vn -2.454617664682246E-08 0 -1
vn -2.454617664682246E-08 0 -1
vn 1.5404675148336655E-13 0 -1
vn -1.9658761729601792E-08 0 -1
vn 0 0 -1
vn 0 0 -1
vn 7.570664650735637E-10 0 -1
vn -1.9658761729601792E-08 0 -1
vn 1.5404675148336655E-13 0 -1
vn -1.3385095698481564E-08 0 -1
vn -1.3385095698481564E-08 0 -1
vn 1.5404675148336655E-13 0 -1
vn 2.755799755060906E-10 0 -1
vn 0 0 -1
vn 0 0 -1
vn 7.570664650735637E-10 0 -1
vn 2.755799755060906E-10 0 -1
vn 1.5404675148336655E-13 0 -1
vn 2.3778905955396112E-08 0 -1
vn 0 0 -1
vn 0 0 -1
vn 7.570664650735637E-10 0 -1
vn 2.3778905955396112E-08 0 -1
vn 1.5404675148336655E-13 0 -1
vn -3.1339183692580264E-08 0 -1
vn -3.1339183692580264E-08 0 -1
vn 1.5404675148336655E-13 0 -1
vn 5.310765160970732E-08 0 -1
vn 0 0 -1
vn 0 0 -1
vn 7.570664650735637E-10 0 -1
vn 5.310765160970732E-08 0 -1
vn 1.5404675148336655E-13 0 -1
vn 3.0291701591522724E-08 0 -1
vn 0 0 -1
vn 0 0 -1
vn 7.570664650735637E-10 0 -1
vn 7.570664650735637E-10 0 -1
vn 0 0 -1
vn 1.5404675148336655E-13 0 -1
vn 0 0 -1
vn 0 0 -1
vn 1.5404675148336655E-13 0 -1
vn 0 0 -1
vn 0 0 -0.9999999403953552
vn 1.5404675148336655E-13 0 -1
vn 0 0 -0.9999999403953552
vn 0 0 -1
vn 1.5404675148336655E-13 0 -1
vn 0 0 -1
vn 0 0 -1
vn 1.5404675148336655E-13 0 -1
vn 0 0 -1
vn 0 0 -1
vn 1.5404675148336655E-13 0 -1
vn 0 0 -1
vn 0 0 -1
vn 1.5404675148336655E-13 0 -1
vn 0 0 -1
vn 0 0 -0.9999999403953552
vn 1.5404675148336655E-13 0 -1
vn 0 0 -0.9999999403953552
vn 0 0 -1
vn 1.5404675148336655E-13 0 -1
vn 0 0 -1
vn 0 0 -1
vn 1.5404675148336655E-13 0 -1
vn 0 0 -1
vn 3.4869355403088775E-08 0 -1
vn 1.5404675148336655E-13 0 -1
vn 3.4869355403088775E-08 0 -1
vn 7.015758285433549E-08 0 -1
vn 1.5404675148336655E-13 0 -1
vn 7.015758285433549E-08 0 -1
vn -9.42459834618603E-08 0 -1
vn 1.5404675148336655E-13 0 -1
vn -9.42459834618603E-08 0 -1
vn 0 0 -1
vn 1.5404675148336655E-13 0 -1
vn 0 0 -1
vn 3.0291701591522724E-08 0 -1
vn 1.5404675148336655E-13 0 -1
vn -3.2594527077378643E-09 0 1
vn 1.8615974317626183E-09 0 1
vn -1.582980191372485E-09 0 1
vn -1.582980191372485E-09 0 1
vn 1.8615974317626183E-09 0 1
vn 0 0 1
vn 0 0 1
vn 1.8615974317626183E-09 0 1
vn 7.26854132437893E-10 0 1
vn -3.2594527077378643E-09 0 1
vn -1.582980191372485E-09 0 1
vn -7.229465914804223E-10 0 1
vn -1.582980191372485E-09 0 1
vn 3.2428658869321225E-07 0 1
vn -7.229465914804223E-10 0 1
vn 3.2428658869321225E-07 0 1
vn -3.93940439380458E-07 0 0.9999999403953552
vn -7.229465914804223E-10 0 1
vn -3.93940439380458E-07 0 0.9999999403953552
vn 0 0 1
vn -7.229465914804223E-10 0 1
vn 0 0 1
vn 0 0 1
vn -7.229465914804223E-10 0 1
vn 0 0 1
vn 0 0 1
vn -7.229465914804223E-10 0 1
vn 0 0 1
vn 0 0 1
vn -7.229465914804223E-10 0 1
vn 0 0 1
vn 0 0 1
vn -7.229465914804223E-10 0 1
vn 0 0 1
vn 0 0 1
vn -7.229465914804223E-10 0 1
vn 0 0 1
vn -9.175526827220892E-08 0 1
vn -7.229465914804223E-10 0 1
vn -9.175526827220892E-08 0 1
vn -3.3076568684009544E-07 0 1
vn -7.229465914804223E-10 0 1
vn -3.3076568684009544E-07 0 1
vn 0 0 1
vn -7.229465914804223E-10 0 1
vn 0 0 1
vn 9.834391079266425E-08 0 1
vn -7.229465914804223E-10 0 1
vn 9.834391079266425E-08 0 1
vn 2.170318254002268E-07 0 1
vn -7.229465914804223E-10 0 1
vn 2.170318254002268E-07 0 1
vn -3.1474021966459986E-07 0 0.9999999403953552
vn -7.229465914804223E-10 0 1
vn -3.1474021966459986E-07 0 0.9999999403953552
vn 1.0707920239383384E-07 0 0.9999999403953552
vn -7.229465914804223E-10 0 1
vn 1.0707920239383384E-07 0 0.9999999403953552
vn 1.9888116753463692E-07 0 1
vn -7.229465914804223E-10 0 1
vn 1.9888116753463692E-07 0 1
vn -3.074112271406193E-07 0 1
vn -7.229465914804223E-10 0 1
vn -3.074112271406193E-07 0 1
vn 0 0 1
vn -7.229465914804223E-10 0 1
vn 0 0 1
vn 0 0 0.9999999403953552
vn -7.229465914804223E-10 0 1
vn 0 0 0.9999999403953552
vn 0 0 1
vn -7.229465914804223E-10 0 1
vn 0 0 1
vn 0 0 1
vn -7.229465914804223E-10 0 1
vn 0 0 1
vn -1.4041934548458812E-07 0 0.9999999403953552
vn -7.229465914804223E-10 0 1
vn -1.4041934548458812E-07 0 0.9999999403953552
vn -3.02022357345777E-07 0 1
vn -7.229465914804223E-10 0 1
vn -3.02022357345777E-07 0 1
vn 0 0 1
vn -7.229465914804223E-10 0 1
vn 0 0 1
vn 0 0 1
vn -7.229465914804223E-10 0 1
vn 0 0 1
vn 0 0 1
vn -7.229465914804223E-10 0 1
vn 0 0 1
vn 0 0 1
vn -7.229465914804223E-10 0 1
vn 0 0 1
vn -1.9727156086446485E-07 0 1
vn -7.229465914804223E-10 0 1
vn -1.9727156086446485E-07 0 1
vn -2.4904982520723706E-09 0 1
vn -7.229465914804223E-10 0 1
vn -7.229465914804223E-10 0 1
vn -2.4904982520723706E-09 0 1
vn 4.4810941068895715E-10 0 1
vn -2.4904982520723706E-09 0 1
vn 1.210852678923402E-05 0 1
vn 4.4810941068895715E-10 0 1
vn 1.210852678923402E-05 0 1
vn -5.164714366401313E-06 0 1
vn 4.4810941068895715E-10 0 1
vn -5.164714366401313E-06 0 1
vn 0 0 0.9999999403953552
vn 4.4810941068895715E-10 0 1
vn 0 0 0.9999999403953552
vn 0 0 1
vn 4.4810941068895715E-10 0 1
vn 0 0 1
vn 0 0 1
vn 4.4810941068895715E-10 0 1
vn 0 0 1
vn 0 0 0.9999999403953552
vn 4.4810941068895715E-10 0 1
vn 0 0 0.9999999403953552
vn 0 0 1
vn 4.4810941068895715E-10 0 1
vn 0 0 1
vn -2.488545192136371E-07 0 0.9999999403953552
vn 4.4810941068895715E-10 0 1
vn -2.488545192136371E-07 0 0.9999999403953552
vn -8.459107334601867E-07 0 1
vn 4.4810941068895715E-10 0 1
vn -8.459107334601867E-07 0 1
vn 0 0 1
vn 4.4810941068895715E-10 0 1
vn 0 0 1
vn 0 0 1
vn 4.4810941068895715E-10 0 1
vn 0 0 1
vn 0 0 1
vn 4.4810941068895715E-10 0 1
vn 0 0 1
vn 2.8325345624580223E-07 0 1
vn 4.4810941068895715E-10 0 1
vn 2.8325345624580223E-07 0 1
vn 4.3998855403515336E-07 0 1
vn 4.4810941068895715E-10 0 1
vn 4.3998855403515336E-07 0 1
vn 0 0 0.9999999403953552
vn 4.4810941068895715E-10 0 1
vn 0 0 0.9999999403953552
vn 0 0 1
vn 4.4810941068895715E-10 0 1
vn 0 0 1
vn 0 0 1
vn 4.4810941068895715E-10 0 1
vn 0 0 1
vn 0 0 1
vn 4.4810941068895715E-10 0 1
vn 1.8615974317626183E-09 0 1
vn 4.4810941068895715E-10 0 1
vn 7.26854132437893E-10 0 1
vn 7.26854132437893E-10 0 1
vn 4.4810941068895715E-10 0 1
vn -2.4074645921245974E-07 0 0.9999999403953552
vn -2.4074645921245974E-07 0 0.9999999403953552
vn 4.4810941068895715E-10 0 1
vn 2.0746186635278718E-07 0 1
vn 2.0746186635278718E-07 0 1
vn 4.4810941068895715E-10 0 1
vn -3.373306256548858E-08 0 1
vn -3.373306256548858E-08 0 1
vn 4.4810941068895715E-10 0 1
vn -1.5601925440478226E-07 0 0.9999999403953552
vn -1.5601925440478226E-07 0 0.9999999403953552
vn 4.4810941068895715E-10 0 1
vn 6.40155306541601E-08 0 0.9999999403953552
vn 6.40155306541601E-08 0 0.9999999403953552
vn 4.4810941068895715E-10 0 1
vn 2.7476424691030843E-08 0 1
vn 2.7476424691030843E-08 0 1
vn 4.4810941068895715E-10 0 1
vn 1.981606700951488E-08 0 1
vn 1.981606700951488E-08 0 1
vn 4.4810941068895715E-10 0 1
vn -1.0784077630887623E-07 0 0.9999999403953552
vn -1.0784077630887623E-07 0 0.9999999403953552
vn 4.4810941068895715E-10 0 1
vn 1.3814165367165288E-09 0 1
vn 1.3814165367165288E-09 0 1
vn 4.4810941068895715E-10 0 1
vn 1.8591252626265486E-07 0 1
vn 1.8591252626265486E-07 0 1
vn 4.4810941068895715E-10 0 1
vn -4.7034487415942294E-09 0 0.9999999403953552
vn -4.7034487415942294E-09 0 0.9999999403953552
vn 4.4810941068895715E-10 0 1
vn 3.759514655143903E-08 0 1
vn 3.759514655143903E-08 0 1
vn 4.4810941068895715E-10 0 1
vn -2.1382140857895138E-07 0 1
vn -2.1382140857895138E-07 0 1
vn 4.4810941068895715E-10 0 1
vn 2.0181968807264639E-07 0 1
vn 2.0181968807264639E-07 0 1
vn 4.4810941068895715E-10 0 1
vn -1.0724986765353606E-07 0 1
vn -1.0724986765353606E-07 0 1
vn 4.4810941068895715E-10 0 1
vn -6.509487349148912E-08 0 0.9999999403953552
vn -6.509487349148912E-08 0 0.9999999403953552
vn 4.4810941068895715E-10 0 1
vn 3.2753220580161724E-07 0 1
vn 3.2753220580161724E-07 0 1
vn 4.4810941068895715E-10 0 1
vn -2.8315115585542117E-08 0 1
vn -2.8315115585542117E-08 0 1
vn 4.4810941068895715E-10 0 1
vn -9.711474291407285E-08 0 1
vn -9.711474291407285E-08 0 1
vn 4.4810941068895715E-10 0 1
vn -6.24093985379659E-08 0 0.9999999403953552
vn -6.24093985379659E-08 0 0.9999999403953552
vn 4.4810941068895715E-10 0 1
vn -8.540671814216694E-08 0 0.9999999403953552
vn -8.540671814216694E-08 0 0.9999999403953552
vn 4.4810941068895715E-10 0 1
vn 3.081127175619258E-08 0 0.9999999403953552
vn 3.081127175619258E-08 0 0.9999999403953552
vn 4.4810941068895715E-10 0 1
vn 2.157326264295989E-07 0 1
vn 2.157326264295989E-07 0 1
vn 4.4810941068895715E-10 0 1
vn -1.0822687102063355E-07 0 1
vn -1.0822687102063355E-07 0 1
vn 4.4810941068895715E-10 0 1
vn -1.0194947464015058E-07 0 1
vn -1.0194947464015058E-07 0 1
vn 4.4810941068895715E-10 0 1
vn -1.1844079494949256E-08 0 1
vn -1.1844079494949256E-08 0 1
vn 4.4810941068895715E-10 0 1
vn -3.586848507097784E-08 0 1
vn -3.586848507097784E-08 0 1
vn 4.4810941068895715E-10 0 1
vn -4.5579184870803147E-08 0 0.9999999403953552
vn -4.5579184870803147E-08 0 0.9999999403953552
vn 4.4810941068895715E-10 0 1
vn -2.1619250833992965E-09 0 1
vn -2.1619250833992965E-09 0 1
vn 4.4810941068895715E-10 0 1
vn 1.0124944083145238E-07 0 1
vn 1.0124944083145238E-07 0 1
vn 4.4810941068895715E-10 0 1
vn 2.2739617122624622E-07 0 0.9999999403953552
vn 2.2739617122624622E-07 0 0.9999999403953552
vn 4.4810941068895715E-10 0 1
vn -8.646636473486069E-08 0 1
vn 0 0 1
vn -8.646636473486069E-08 0 1
vn 4.4810941068895715E-10 0 1
vn -0.99461704492568976 -0.10361935943365098 0
vn -0.99287396669387824 -0.1191692054271698 0
vn -0.99287396669387824 -0.1191692054271698 0
vn -0.99461704492568976 -0.10361935943365098 0
vn 0.85643416643142704 -0.51625621318817136 0
vn 0.8751646876335144 -0.48382502794265744 0
vn 0.8751646876335144 -0.48382502794265744 0
vn 0.85643416643142704 -0.51625621318817136 0
vn -0.99609065055847168 -0.08833634853363037 0
vn -0.99461704492568976 -0.10361935943365098 0
vn -0.99461704492568976 -0.10361935943365098 0
vn -0.99609065055847168 -0.08833634853363037 0
vn 0.8751646876335144 -0.48382502794265744 0
vn 0.89140230417251584 -0.4532131254673004 0
vn 0.89140230417251584 -0.4532131254673004 0
vn 0.8751646876335144 -0.48382502794265744 0
vn -0.99731153249740608 -0.07327933609485626 0
vn -0.99609065055847168 -0.08833634853363037 0
vn -0.99609065055847168 -0.08833634853363037 0
vn -0.99731153249740608 -0.07327933609485626 0
vn 0.89140230417251584 -0.4532131254673004 0
vn 0.90552008152008064 -0.42430338263511656 0
vn 0.90552008152008064 -0.42430338263511656 0
vn 0.89140230417251584 -0.4532131254673004 0
vn -0.9982929229736328 -0.05840691924095154 0
vn -0.99731153249740608 -0.07327933609485626 0
vn -0.99731153249740608 -0.07327933609485626 0
vn -0.9982929229736328 -0.05840691924095154 0
vn 0.90552008152008064 -0.42430338263511656 0
vn 0.91783225536346432 -0.39696836471557616 0
vn 0.91783225536346432 -0.39696836471557616 0
vn 0.90552008152008064 -0.42430338263511656 0
vn -0.99904555082321168 -0.04367968812584877 0
vn -0.9982929229736328 -0.05840691924095154 0
vn -0.9982929229736328 -0.05840691924095154 0
vn -0.99904555082321168 -0.04367968812584877 0
vn 0.91783225536346432 -0.39696836471557616 0
vn 0.92860209941864016 -0.37107697129249576 0
vn 0.92860209941864016 -0.37107697129249576 0
vn 0.91783225536346432 -0.39696836471557616 0
vn -0.9995776414871216 -0.02905944176018238 0
vn -0.99904555082321168 -0.04367968812584877 0
vn -0.99904555082321168 -0.04367968812584877 0
vn -0.9995776414871216 -0.02905944176018238 0
vn 0.92860209941864016 -0.37107697129249576 0
vn 0.9380463361740112 -0.3465096652507782 0
vn 0.9380463361740112 -0.3465096652507782 0
vn 0.92860209941864016 -0.37107697129249576 0
vn -0.99989473819732672 -0.01451166532933712 0
vn -0.9995776414871216 -0.02905944176018238 0
vn -0.9995776414871216 -0.02905944176018238 0
vn -0.99989473819732672 -0.01451166532933712 0
vn 0.9380463361740112 -0.3465096652507782 0
vn 0.9463491439819336 -0.32314616441726684 0
vn 0.9463491439819336 -0.32314616441726684 0
vn 0.9380463361740112 -0.3465096652507782 0
vn -0.99997377395629888 -0.00725375348702073 0
vn -0.99989473819732672 -0.01451166532933712 0
vn -0.99989473819732672 -0.01451166532933712 0
vn -0.99997377395629888 -0.00725375348702073 0
vn 0.9463491439819336 -0.32314616441726684 0
vn 0.95366394519805904 -0.3008737862110138 0
vn 0.95366394519805904 -0.3008737862110138 0
vn 0.9463491439819336 -0.32314616441726684 0
vn 0.95366394519805904 -0.3008737862110138 0
vn 0.96011865139007568 -0.27959290146827696 0
vn 0.96011865139007568 -0.27959290146827696 0
vn 0.95366394519805904 -0.3008737862110138 0
vn 0.96011865139007568 -0.27959290146827696 0
vn 0.96582144498825072 -0.2592085599899292 0
vn 0.96582144498825072 -0.2592085599899292 0
vn 0.96011865139007568 -0.27959290146827696 0
vn 0.96582144498825072 -0.2592085599899292 0
vn 0.9708640575408936 -0.23963095247745512 0
vn 0.9708640575408936 -0.23963095247745512 0
vn 0.96582144498825072 -0.2592085599899292 0
vn 0.9708640575408936 -0.23963095247745512 0
vn 0.97532373666763312 -0.22077935934066772 0
vn 0.97532373666763312 -0.22077935934066772 0
vn 0.9708640575408936 -0.23963095247745512 0
vn 0.97532373666763312 -0.22077935934066772 0
vn 0.9792654514312744 -0.20258171856403352 0
vn 0.9792654514312744 -0.20258171856403352 0
vn 0.97532373666763312 -0.22077935934066772 0
vn 0.9792654514312744 -0.20258171856403352 0
vn 0.98274451494216912 -0.18496790528297424 0
vn 0.98274451494216912 -0.18496790528297424 0
vn 0.9792654514312744 -0.20258171856403352 0
vn 0.98274451494216912 -0.18496790528297424 0
vn 0.98580813407897952 -0.16787609457969666 0
vn 0.98580813407897952 -0.16787609457969666 0
vn 0.98274451494216912 -0.18496790528297424 0
vn 0.98580813407897952 -0.16787609457969666 0
vn 0.98849570751190192 -0.15124863386154174 0
vn 0.98849570751190192 -0.15124863386154174 0
vn 0.98580813407897952 -0.16787609457969666 0
vn 0.98849570751190192 -0.15124863386154174 0
vn 0.99084168672561648 -0.1350286453962326 0
vn 0.99084168672561648 -0.1350286453962326 0
vn 0.98849570751190192 -0.15124863386154174 0
vn 0 -0.9999999403953552 0
vn 0 -0.9999999403953552 0
vn 0 -0.9999999403953552 0
vn 0 -0.9999999403953552 0
vn 0.99084168672561648 -0.1350286453962326 0
vn 0.99287408590316768 -0.11916841566562652 0
vn 0.99287408590316768 -0.11916841566562652 0
vn 0.99084168672561648 -0.1350286453962326 0
vn 0.99287408590316768 -0.11916841566562652 0
vn 0.99461698532104496 -0.10361935198307038 0
vn 0.99461698532104496 -0.10361935198307038 0
vn 0.99287408590316768 -0.11916841566562652 0
vn 0.99461698532104496 -0.10361935198307038 0
vn 0.99609071016311648 -0.08833640813827515 0
vn 0.99609071016311648 -0.08833640813827515 0
vn 0.99461698532104496 -0.10361935198307038 0
vn 0.99609071016311648 -0.08833640813827515 0
vn 0.99731153249740608 -0.07327933609485626 0
vn 0.99731153249740608 -0.07327933609485626 0
vn 0.99609071016311648 -0.08833640813827515 0
vn 0.99731153249740608 -0.07327933609485626 0
vn 0.9982929229736328 -0.05840691924095154 0
vn 0.9982929229736328 -0.05840691924095154 0
vn 0.99731153249740608 -0.07327933609485626 0
vn 0.9982929229736328 -0.05840691924095154 0
vn 0.99904567003250128 -0.04367930069565773 0
vn 0.99904567003250128 -0.04367930069565773 0
vn 0.9982929229736328 -0.05840691924095154 0
vn 0.99904567003250128 -0.04367930069565773 0
vn 0.9995776414871216 -0.02905944176018238 0
vn 0.9995776414871216 -0.02905944176018238 0
vn 0.99904567003250128 -0.04367930069565773 0
vn 0.9995776414871216 -0.02905944176018238 0
vn 0.99989473819732672 -0.01451205648481845 0
vn 0.99989473819732672 -0.01451205648481845 0
vn 0.9995776414871216 -0.02905944176018238 0
vn 0.99989473819732672 -0.01451205648481845 0
vn 0.99997377395629888 -0.00725375348702073 0
vn 0.99997377395629888 -0.00725375348702073 0
vn 0.99989473819732672 -0.01451205648481845 0
vn -1 0 0
vn -1 0 0
vn -1 0 0
vn -1 0 0
vn 0 0 1
vn 0 0 1.525878976156166E-23
vn 0 0 1.525878976156166E-23
vn 0 1 0
vn 0 1 0
vn 0 1 0
vn 0 1 0
vn 0 0 -1.1444091926740793E-23
vn 0 0 -1
vn 0 0 -1.1444091926740793E-23
# 862 vertex normals

vt 1.35117912292480468 1.97571504116058352 0
vt 1.35117912292480468 1.46063005924224856 0
vt -1.46647894382476808 1.46063005924224856 0
vt -1.46647894382476808 1.97571492195129392 0
vt -1.35117912292480468 -8.45291328430175784 0
vt -1.35117912292480468 -7.63205337524414064 0
vt 1.46647894382476808 -7.6320528984069824 0
vt 1.46647894382476808 -8.45291328430175784 0
vt 1.35117912292480468 2.21675992012023924 0
vt 1.35117912292480468 1.72295212745666496 0
vt -1.46647894382476808 1.72295200824737552 0
vt -1.46647894382476808 2.21675992012023924 0
vt -1.35117912292480468 -7.73931884765624992 0
vt -1.35117912292480468 -6.92848014831542976 0
vt 1.46647894382476808 -6.92848014831542976 0
vt 1.46647894382476808 -7.73931884765624992 0
vt 1.35117912292480468 2.41004896163940432 0
vt 1.35117912292480468 1.93731498718261712 0
vt -1.46647894382476808 1.93731498718261712 0
vt -1.46647894382476808 2.41004896163940432 0
vt -1.35117912292480468 -7.03656196594238281 0
vt -1.35117912292480468 -6.23677682876586916 0
vt 1.46647894382476808 -6.23677682876586916 0
vt 1.46647894382476808 -7.03656196594238281 0
vt 1.35117912292480468 2.55148291587829592 0
vt 1.35117912292480468 2.09945201873779296 0
vt -1.46647894382476808 2.09945201873779296 0
vt -1.46647894382476808 2.55148291587829592 0
vt -1.35117912292480468 -6.34613037109375 0
vt -1.35117912292480468 -5.558405876159668 0
vt 1.46647894382476808 -5.558405876159668 0
vt 1.46647894382476808 -6.3461298942565918 0
vt 1.35117912292480468 2.63660192489624024 0
vt 1.35117912292480468 2.2047119140625 0
vt -1.46647894382476808 2.2047119140625 0
vt -1.46647894382476808 2.63660192489624024 0
vt -1.35117912292480468 -5.66947984695434568 0
vt -1.35117912292480468 -4.89479303359985344 0
vt 1.46647894382476808 -4.89479303359985344 0
vt 1.46647894382476808 -5.66947984695434568 0
vt -2.66064596176147464 1.35117912292480468 0
vt -2.248121976852417 1.35117912292480468 0
vt -2.248121976852417 -1.46647894382476808 0
vt -2.66064596176147464 -1.46647894382476808 0
vt -1.35117912292480468 -5.00807809829711914 0
vt -1.35117912292480468 -4.24737215042114256 0
vt 1.46647894382476808 -4.24737215042114256 0
vt 1.46647894382476808 -5.00807809829711914 0
vt -2.618818998336792 1.35117912292480468 0
vt -2.22464108467102052 1.35117912292480468 0
vt -2.22464108467102052 -1.46647894382476808 0
vt -2.618818998336792 -1.46647894382476808 0
vt -1.35117912292480468 -4.36340379714965824 0
vt -1.35117912292480468 -3.61758899688720704 0
vt 1.46647894382476808 -3.61758899688720704 0
vt 1.46647894382476808 -4.36340379714965824 0
vt -2.50679993629455568 1.35117912292480468 0
vt -2.12967705726623536 1.35117912292480468 0
vt -2.12967705726623536 -1.46647894382476808 0
vt -2.50679993629455568 -1.46647894382476808 0
vt -1.35117912292480468 -3.73696994781494144 0
vt -1.35117912292480468 -3.00691699981689453 0
vt 1.46647894382476808 -3.00691699981689453 0
vt 1.46647894382476808 -3.73696994781494144 0
vt -2.32135605812072752 1.35117912292480468 0
vt -1.95970594882965088 1.35117912292480468 0
vt -1.95970594882965088 -1.46647894382476808 0
vt -2.32135605812072752 -1.46647894382476808 0
vt -1.35117912292480468 -3.13030290603637696 0
vt -1.35117912292480468 -2.41683697700500488 0
vt 1.46647894382476808 -2.41683697700500488 0
vt 1.46647894382476808 -3.13030290603637696 0
vt -2.06158590316772461 1.35117912292480468 0
vt -1.71351099014282224 1.35117912292480468 0
vt -1.71351099014282224 -1.46647894382476808 0
vt -2.06158590316772461 -1.46647894382476808 0
vt -1.35117912292480468 -2.54497408866882328 0
vt -1.35117912292480468 -1.848876953125 0
vt 1.46647894382476808 -1.848876953125 0
vt 1.46647894382476808 -2.54497408866882328 0
vt -1.72994303703308112 1.35117912292480468 0
vt -1.39322900772094728 1.35117912292480468 0
vt -1.39322900772094728 -1.46647894382476808 0
vt -1.72994303703308112 -1.46647894382476808 0
vt -1.35117912292480468 -1.98259902000427248 0
vt -1.35117912292480468 -1.30459904670715332 0
vt 1.46647894382476808 -1.30459904670715332 0
vt 1.46647894382476808 -1.98259902000427248 0
vt -1.33369302749633788 1.35117912292480468 0
vt -1.00582504272460937 1.35117912292480468 0
vt -1.00582504272460937 -1.46647894382476808 0
vt -1.33369302749633788 -1.46647894382476808 0
vt -1.35117912292480468 -1.44488894939422608 0
vt -1.35117912292480468 -0.78566157817840576 0
vt 1.46647894382476808 -0.78566157817840576 0
vt 1.46647894382476808 -1.44488894939422608 0
vt -0.88594841957092288 1.35117912292480468 0
vt -0.5641422271728516 1.35117912292480468 0
vt -0.5641422271728516 -1.46647894382476808 0
vt -0.88594841957092288 -1.46647894382476808 0
vt -1.35117912292480468 -0.93359911441802976 0
vt -1.35117912292480468 -0.29375261068344116 0
vt 1.46647894382476808 -0.29375261068344116 0
vt 1.46647894382476808 -0.93359911441802976 0
vt -0.40506270527839664 1.35117912292480468 0
vt -0.08634057641029358 1.35117912292480468 0
vt -0.08634057641029358 -1.46647894382476808 0
vt -0.40506267547607424 -1.46647894382476808 0
vt -1.35117912292480468 -0.45064449310302736 0
vt -1.35117912292480468 0.16927969455718994 0
vt 1.46647894382476808 0.16927969455718994 0
vt 1.46647894382476808 -0.45064449310302736 0
vt 0.08634202927350998 1.35117912292480468 0
vt 0.4050633013248444 1.35117912292480468 0
vt 0.405063271522522 -1.46647894382476808 0
vt 0.08634202927350998 -1.46647894382476808 0
vt -1.35117912292480468 0.00193424802273511 0
vt -1.35117912292480468 0.60146379470825192 0
vt 1.46647894382476808 0.60146379470825192 0
vt 1.46647894382476808 0.00193424802273511 0
vt 0.56414240598678592 1.35117912292480468 0
vt 0.88594865798950192 1.35117912292480468 0
vt 0.88594871759414672 -1.46647894382476808 0
vt 0.56414240598678592 -1.46647894382476808 0
vt -1.35117912292480468 0.42194390296936032 0
vt -1.35117912292480468 1.00069701671600341 0
vt 1.46647894382476808 1.00069701671600341 0
vt 1.46647894382476808 0.42194390296936032 0
vt 1.00582504272460937 1.35117912292480468 0
vt 1.33369302749633788 1.35117912292480468 0
vt 1.33369302749633788 -1.46647894382476808 0
vt 1.00582504272460937 -1.46647894382476808 0
vt -1.35117912292480468 0.80690443515777584 0
vt -1.35117912292480468 1.36458599567413328 0
vt 1.46647894382476808 1.36458599567413328 0
vt 1.46647894382476808 0.80690437555313104 0
vt 1.3932310342788696 1.35117912292480468 0
vt 1.72994399070739744 1.35117912292480468 0
vt 1.72994399070739744 -1.46647894382476808 0
vt 1.3932310342788696 -1.46647894382476808 0
vt -1.35117912292480468 1.1541520357131958 0
vt -1.35117912292480468 1.69057297706604 0
vt 1.46647894382476808 1.69057297706604 0
vt 1.46647894382476808 1.1541520357131958 0
vt 1.71351003646850584 1.35117912292480468 0
vt 2.0615849494934082 1.35117912292480468 0
vt 2.0615849494934082 -1.46647894382476808 0
vt 1.71351003646850584 -1.46647894382476808 0
vt -1.35117912292480468 1.46063005924224856 0
vt -1.35117912292480468 1.97571504116058352 0
vt 1.46647894382476808 1.97571492195129392 0
vt 1.46647894382476808 1.46063005924224856 0
vt 1.95970594882965088 1.35117912292480468 0
vt 2.32135605812072752 1.35117912292480468 0
vt 2.32135605812072752 -1.46647894382476808 0
vt 1.95970594882965088 -1.46647894382476808 0
vt -1.35117912292480468 1.72295212745666496 0
vt -1.35117912292480468 2.21675992012023924 0
vt 1.46647894382476808 2.21675992012023924 0
vt 1.46647894382476808 1.72295200824737552 0
vt 2.12967705726623536 1.35117912292480468 0
vt 2.50679993629455568 1.35117912292480468 0
vt 2.50679993629455568 -1.46647894382476808 0
vt 2.12967705726623536 -1.46647894382476808 0
vt -1.35117912292480468 1.93731498718261712 0
vt -1.35117912292480468 2.41004896163940432 0
vt 1.46647894382476808 2.41004896163940432 0
vt 1.46647894382476808 1.93731498718261712 0
vt 2.22464203834533692 1.35117912292480468 0
vt 2.618818998336792 1.35117912292480468 0
vt 2.618818998336792 -1.46647894382476808 0
vt 2.22464203834533692 -1.46647894382476808 0
vt -1.35117912292480468 2.09945201873779296 0
vt -1.35117912292480468 2.55148291587829592 0
vt 1.46647894382476808 2.55148291587829592 0
vt 1.46647894382476808 2.09945201873779296 0
vt 2.248121976852417 1.35117912292480468 0
vt 2.66064691543579104 1.35117912292480468 0
vt 2.66064691543579104 -1.46647894382476808 0
vt 2.248121976852417 -1.46647894382476808 0
vt -1.35117912292480468 2.2047119140625 0
vt -1.35117912292480468 2.63660192489624024 0
vt 1.46647894382476808 2.63660192489624024 0
vt 1.46647894382476808 2.2047119140625 0
vt -4.768372150465439E-07 0.6408944129943848 0
vt -9.8872652053833008 0.6408942937850952 0
vt -9.8872652053833008 2.9802320611338473E-08 0
vt -4.768372150465439E-07 -4.768372150465439E-07 0
vt 11.78353023529052736 0.64089387655258176 0
vt -4.768372150465439E-07 0.6408944129943848 0
vt -4.768372150465439E-07 -4.768372150465439E-07 0
vt 11.78353023529052736 -9.5367431640625E-07 0
vt -4.768372150465439E-07 -4.768372150465439E-07 0
vt -0.16892752051353454 -4.36155271530151368 0
vt -0.16892752051353454 -4.48378372192382816 0
vt -0.16892744600772858 -5.35245990753173828 0
vt -0.24635763466358184 -5.35207796096801756 0
vt -0.32366836071014404 -5.35093259811401368 0
vt -0.40074008703231808 -5.34902524948120116 0
vt -0.47745406627655032 -5.34635925292968752 0
vt -0.55369269847869872 -5.34293937683105468 0
vt -0.62933856248855592 -5.33877038955688476 0
vt -0.70427405834198 -5.33385848999023436 0
vt -0.7783840894699096 -5.32821035385131836 0
vt -0.85155451297760016 -5.3218364715576172 0
vt -0.92367225885391232 -5.31474542617797852 0
vt -0.99462616443634032 -5.30694913864135744 0
vt -1.06430697441101074 -5.29845809936523436 0
vt -1.1326073408126831 -5.28928709030151368 0
vt -1.19942140579223632 -5.279449462890625 0
vt -1.2646465301513672 -5.26896047592163084 0
vt -1.32818233966827392 -5.25783634185791016 0
vt -1.38993072509765624 -5.24609375 0
vt -1.44979643821716312 -5.23375177383422852 0
vt -1.50768709182739256 -5.22082901000976564 0
vt -1.5635133981704712 -5.20734500885009764 0
vt -1.6171894073486328 -5.19332027435302736 0
vt -1.66863250732421872 -5.17877769470214844 0
vt -1.7177627086639404 -5.16373825073242188 0
vt -1.7645050287246704 -5.14822626113891602 0
vt -1.80878722667694096 -5.13226509094238282 0
vt -1.85054063796997072 -5.11588001251220704 0
vt -1.88970112800598144 -5.09909534454345704 0
vt -1.92620849609375008 -5.08193731307983398 0
vt -1.96000576019287104 -5.06443262100219727 0
vt -1.99104189872741696 -5.04660797119140625 0
vt -2.01926827430725097 -5.02849102020263672 0
vt -2.04464149475097656 -5.01010990142822265 0
vt -2.06712245941162109 -4.99149227142333984 0
vt -2.08667659759521484 -4.97266721725463872 0
vt -2.10327363014221192 -4.95366430282592768 0
vt -2.11688828468322754 -4.9345121383666992 0
vt -2.12749934196472168 -4.91524076461792 0
vt -2.13509011268615722 -4.89587926864624016 0
vt -11.78353023529052736 -4.768372150465439E-07 0
vt -11.78353023529052736 -9.88726425170898432 0
vt 4.768372150465439E-07 -9.8872652053833008 0
vt 4.768372150465439E-07 -9.8872652053833008 0
vt 11.78353023529052736 -9.88726615905761712 0
vt 11.78353023529052736 -9.5367431640625E-07 0
vt 2.13509011268615722 -4.89587879180908208 0
vt 2.12749934196472168 -4.91524076461792 0
vt 2.11688828468322754 -4.9345121383666992 0
vt 2.10327363014221192 -4.95366430282592768 0
vt 2.08667659759521484 -4.97266721725463872 0
vt 2.06712245941162109 -4.99149227142333984 0
vt 2.04464149475097656 -5.01010990142822265 0
vt 2.01926827430725097 -5.02849102020263672 0
vt 1.99104189872741696 -5.04660797119140625 0
vt 1.96000576019287104 -5.06443262100219727 0
vt 1.92620849609375008 -5.08193731307983398 0
vt 1.88970112800598144 -5.09909486770629882 0
vt 1.85054063796997072 -5.11587953567504882 0
vt 1.8087873458862304 -5.13226509094238282 0
vt 1.76450514793396 -5.14822626113891602 0
vt 1.7177627086639404 -5.16373825073242188 0
vt 1.66863250732421872 -5.17877769470214844 0
vt 1.6171894073486328 -5.19332027435302736 0
vt 1.56351351737976072 -5.20734500885009764 0
vt 1.50768709182739256 -5.22082853317260744 0
vt 1.44979655742645264 -5.23375177383422852 0
vt 1.38993084430694584 -5.24609375 0
vt 1.32818245887756348 -5.25783634185791016 0
vt 1.2646465301513672 -5.26896047592163084 0
vt 1.19942152500152588 -5.279449462890625 0
vt 1.13260746002197266 -5.28928709030151368 0
vt 1.06430709362030029 -5.29845809936523436 0
vt 0.99462622404098512 -5.3069486618041992 0
vt 0.92367237806320192 -5.31474542617797852 0
vt 0.8515545725822448 -5.3218364715576172 0
vt 0.7783842086791992 -5.32821035385131836 0
vt 0.70427417755126952 -5.33385801315307616 0
vt 0.62933868169784544 -5.33877038955688476 0
vt 0.55369275808334352 -5.34293937683105468 0
vt 0.47745412588119504 -5.34635925292968752 0
vt 0.40074017643928528 -5.34902524948120116 0
vt 0.3236684501171112 -5.35093212127685548 0
vt 0.2463577091693878 -5.35207748413085936 0
vt 0.16892752051353454 -5.35245943069458008 0
vt 0.16892749071121216 -5.23022794723510744 0
vt 0.16892741620540618 -4.36155319213867184 0
vt -4.768372150465439E-07 -4.768372150465439E-07 0
vt -1.35117912292480468 -9.17589855194091796 0
vt -1.35117912292480468 -8.3460721969604492 0
vt 1.46647894382476808 -8.3460721969604492 0
vt 1.46647894382476808 -9.17589855194091796 0
vt 1.35117912292480468 1.69057297706604 0
vt 1.35117912292480468 1.1541520357131958 0
vt -1.46647894382476808 1.1541520357131958 0
vt -1.46647894382476808 1.69057297706604 0
vt -1.35117912292480468 -9.90680313110351568 0
vt -1.35117912292480468 -9.06908893585205078 0
vt 1.46647894382476808 -9.06908893585205078 0
vt 1.46647894382476808 -9.90680313110351568 0
vt 1.35117912292480468 1.36458599567413328 0
vt 1.35117912292480468 0.80690443515777584 0
vt -1.46647894382476808 0.80690437555313104 0
vt -1.46647894382476808 1.36458599567413328 0
vt -1.35117912292480468 -10.64414024353027344 0
vt -1.35117912292480468 -9.799626350402832 0
vt 1.46647894382476808 -9.799626350402832 0
vt 1.46647894382476808 -10.64414024353027344 0
vt 1.35117912292480468 1.00069701671600341 0
vt 1.35117912292480468 0.42194390296936032 0
vt -1.46647894382476808 0.42194390296936032 0
vt -1.46647894382476808 1.00069701671600341 0
vt -1.35117912292480468 -11.38642024993896488 0
vt -1.35117912292480468 -10.53621959686279296 0
vt 1.46647894382476808 -10.53621959686279296 0
vt 1.46647894382476808 -11.38642024993896488 0
vt 1.35117912292480468 0.60146379470825192 0
vt 1.35117912292480468 0.00193424802273511 0
vt -1.46647894382476808 0.00193424802273511 0
vt -1.46647894382476808 0.60146379470825192 0
vt -1.35117912292480468 -12.1321401596069336 0
vt -1.35117912292480468 -11.27737998962402344 0
vt 1.46647894382476808 -11.27737998962402344 0
vt 1.46647894382476808 -12.1321401596069336 0
vt 1.35117912292480468 0.16927969455718994 0
vt 1.35117912292480468 -0.45064449310302736 0
vt -1.46647894382476808 -0.45064449310302736 0
vt -1.46647894382476808 0.16927969455718994 0
vt -1.35117912292480468 -12.8797492980957032 0
vt -1.35117912292480468 -12.02155971527099609 0
vt 1.46647894382476808 -12.02155971527099609 0
vt 1.46647894382476808 -12.87975025177001952 0
vt 1.35117912292480468 -0.29375261068344116 0
vt 1.35117912292480468 -0.93359911441802976 0
vt -1.46647894382476808 -0.93359911441802976 0
vt -1.46647894382476808 -0.29375261068344116 0
vt -1.35117912292480468 -13.6277503967285156 0
vt -1.35117912292480468 -12.76726913452148432 0
vt 1.46647894382476808 -12.76727104187011712 0
vt 1.46647894382476808 -13.6277503967285156 0
vt 1.35117912292480468 -0.78566157817840576 0
vt 1.35117912292480468 -1.44488894939422608 0
vt -1.46647894382476808 -1.44488894939422608 0
vt -1.46647894382476808 -0.78566157817840576 0
vt -1.35117912292480468 -14.37456035614013672 0
vt -1.35117912292480468 -13.51292991638183592 0
vt 1.46647894382476808 -13.51292991638183592 0
vt 1.46647894382476808 -14.37456130981445312 0
vt 1.35117912292480468 -1.30459904670715332 0
vt 1.35117912292480468 -1.98259902000427248 0
vt -1.46647894382476808 -1.98259902000427248 0
vt -1.46647894382476808 -1.30459904670715332 0
vt 1.35117912292480468 -1.848876953125 0
vt 1.35117912292480468 -2.54497408866882328 0
vt -1.46647894382476808 -2.54497408866882328 0
vt -1.46647894382476808 -1.848876953125 0
vt 1.35117912292480468 -2.41683697700500488 0
vt 1.35117912292480468 -3.13030290603637696 0
vt -1.46647894382476808 -3.13030290603637696 0
vt -1.46647894382476808 -2.41683697700500488 0
vt 1.35117912292480468 -3.00691699981689453 0
vt 1.35117912292480468 -3.73696994781494144 0
vt -1.46647894382476808 -3.73696994781494144 0
vt -1.46647894382476808 -3.00691699981689453 0
vt 1.35117912292480468 -3.61758899688720704 0
vt 1.35117912292480468 -4.36340379714965824 0
vt -1.46647894382476808 -4.36340379714965824 0
vt -1.46647894382476808 -3.61758899688720704 0
vt 1.35117912292480468 -4.24737215042114256 0
vt 1.35117912292480468 -5.00807809829711914 0
vt -1.46647894382476808 -5.00807809829711914 0
vt -1.46647894382476808 -4.24737215042114256 0
vt 1.35117912292480468 -4.89479303359985344 0
vt 1.35117912292480468 -5.66947984695434568 0
vt -1.46647894382476808 -5.66947984695434568 0
vt -1.46647894382476808 -4.89479303359985344 0
vt 1.35117912292480468 -5.558405876159668 0
vt 1.35117912292480468 -6.34613037109375 0
vt -1.46647894382476808 -6.3461298942565918 0
vt -1.46647894382476808 -5.558405876159668 0
vt 1.35117912292480468 -6.23677682876586916 0
vt 1.35117912292480468 -7.03656196594238281 0
vt -1.46647894382476808 -7.03656196594238281 0
vt -1.46647894382476808 -6.23677682876586916 0
vt 1.35117912292480468 -6.92848014831542976 0
vt 1.35117912292480468 -7.73931884765624992 0
vt -1.46647894382476808 -7.73931884765624992 0
vt -1.46647894382476808 -6.92848014831542976 0
vt 9.8872652053833008 0.6408942937850952 0
vt -4.768372150465439E-07 0.6408944129943848 0
vt 9.8872652053833008 2.9802320611338473E-08 0
vt 1.35117912292480468 -7.63205337524414064 0
vt 1.35117912292480468 -8.45291328430175784 0
vt -1.46647894382476808 -8.45291328430175784 0
vt -1.46647894382476808 -7.6320528984069824 0
vt 1.35117912292480468 -8.3460721969604492 0
vt 1.35117912292480468 -9.17589855194091796 0
vt -1.46647894382476808 -9.17589855194091796 0
vt -1.46647894382476808 -8.3460721969604492 0
vt 1.35117912292480468 -9.06908893585205078 0
vt 1.35117912292480468 -9.90680313110351568 0
vt -1.46647894382476808 -9.90680313110351568 0
vt -1.46647894382476808 -9.06908893585205078 0
vt 1.35117912292480468 -9.799626350402832 0
vt 1.35117912292480468 -10.64414024353027344 0
vt -1.46647894382476808 -10.64414024353027344 0
vt -1.46647894382476808 -9.799626350402832 0
vt 1.35117912292480468 -10.53621959686279296 0
vt 1.35117912292480468 -11.38642024993896488 0
vt -1.46647894382476808 -11.38642024993896488 0
vt -1.46647894382476808 -10.53621959686279296 0
vt 1.35117912292480468 -11.27737998962402344 0
vt 1.35117912292480468 -12.1321401596069336 0
vt -1.46647894382476808 -12.1321401596069336 0
vt -1.46647894382476808 -11.27737998962402344 0
vt 1.35117912292480468 -12.02155971527099609 0
vt 1.35117912292480468 -12.8797492980957032 0
vt -1.46647894382476808 -12.87975025177001952 0
vt -1.46647894382476808 -12.02155971527099609 0
vt 1.35117912292480468 -12.76726913452148432 0
vt 1.35117912292480468 -13.6277503967285156 0
vt -1.46647894382476808 -13.6277503967285156 0
vt -1.46647894382476808 -12.76727104187011712 0
vt 1.35117912292480468 -13.51292991638183592 0
vt 1.35117912292480468 -14.37456035614013672 0
vt -1.46647894382476808 -14.37456130981445312 0
vt -1.46647894382476808 -13.51292991638183592 0
vt -11.78353023529052736 0.6408944129943848 0
vt 0.24635761976242064 -4.36193513870239256 0
vt 0.32366833090782164 -4.36308002471923832 0
vt 0.40074005722999576 -4.3649873733520508 0
vt 0.47745403647422792 -4.36765289306640624 0
vt 0.55369269847869872 -4.37107276916503904 0
vt 0.62933850288391112 -4.37524271011352536 0
vt 0.7042739987373352 -4.38015460968017576 0
vt 0.7783840894699096 -4.3858022689819336 0
vt 0.85155439376831056 -4.3921761512756348 0
vt 0.92367208003997808 -4.39926719665527344 0
vt 0.99462616443634032 -4.40706348419189456 0
vt 1.06430697441101074 -4.41555404663085936 0
vt 1.13260698318481446 -4.42472505569458008 0
vt 1.19942140579223632 -4.43456268310546872 0
vt 1.26464676856994628 -4.44505167007446288 0
vt 1.32818245887756348 -4.4561758041381836 0
vt 1.38993084430694584 -4.46791791915893552 0
vt 1.44979655742645264 -4.4802603721618652 0
vt 1.50768721103668216 -4.49318361282348632 0
vt 1.5635133981704712 -4.50666761398315432 0
vt 1.61718916893005368 -4.5206918716430664 0
vt 1.66863250732421872 -4.53523492813110352 0
vt 1.7177627086639404 -4.55027389526367184 0
vt 1.7645050287246704 -4.56578588485717776 0
vt 1.80878710746765136 -4.58174705505371096 0
vt 1.85054063796997072 -4.59813213348388672 0
vt 1.8897008895874024 -4.61491680145263672 0
vt 1.92620825767517088 -4.63207483291625976 0
vt 1.96000587940216064 -4.64957952499389648 0
vt 1.99104177951812752 -4.66740417480468752 0
vt 2.01926827430725097 -4.68552112579345704 0
vt 2.04464149475097656 -4.70390272140502928 0
vt 2.06712245941162109 -4.72251987457275392 0
vt 2.08667659759521484 -4.7413444519042968 0
vt 2.10327363014221192 -4.76034832000732416 0
vt 2.11688828468322754 -4.77950000762939456 0
vt 2.12749934196472168 -4.798771858215332 0
vt 2.13509011268615722 -4.81813287734985344 0
vt 2.1396491527557373 -4.83755445480346672 0
vt 2.14116978645324708 -4.85700607299804688 0
vt 2.1396491527557373 -4.8764572143554688 0
vt -2.1396491527557373 -4.87645769119262688 0
vt -2.14116978645324708 -4.85700607299804688 0
vt -2.1396491527557373 -4.83755445480346672 0
vt -2.13509011268615722 -4.81813287734985344 0
vt -2.12749934196472168 -4.798771858215332 0
vt -2.11688828468322754 -4.7795004844665528 0
vt -2.10327363014221192 -4.76034832000732416 0
vt -2.08667659759521484 -4.7413444519042968 0
vt -2.06712245941162109 -4.72251987457275392 0
vt -2.04464173316955566 -4.70390272140502928 0
vt -2.01926827430725097 -4.68552112579345704 0
vt -1.99104189872741696 -4.66740417480468752 0
vt -1.96000599861145024 -4.64958000183105472 0
vt -1.92620837688446048 -4.632075309753418 0
vt -1.88970100879669184 -4.61491680145263672 0
vt -1.85054063796997072 -4.59813213348388672 0
vt -1.80878710746765136 -4.58174705505371096 0
vt -1.76450514793396 -4.56578588485717776 0
vt -1.7177627086639404 -4.55027389526367184 0
vt -1.66863250732421872 -4.53523492813110352 0
vt -1.61718928813934328 -4.5206918716430664 0
vt -1.56351351737976072 -4.50666761398315432 0
vt -1.50768733024597168 -4.49318361282348632 0
vt -1.44979667663574216 -4.4802603721618652 0
vt -1.38993096351623536 -4.46791839599609376 0
vt -1.32818257808685304 -4.4561758041381836 0
vt -1.26464676856994628 -4.44505167007446288 0
vt -1.19942140579223632 -4.43456268310546872 0
vt -1.132607102394104 -4.42472505569458008 0
vt -1.06430697441101074 -4.4155535697937012 0
vt -0.99462622404098512 -4.40706348419189456 0
vt -0.92367219924926752 -4.39926719665527344 0
vt -0.85155451297760016 -4.3921761512756348 0
vt -0.7783842086791992 -4.3858022689819336 0
vt -0.70427411794662472 -4.38015460968017576 0
vt -0.62933862209320072 -4.3752422332763672 0
vt -0.55369281768798832 -4.37107276916503904 0
vt -0.47745415568351744 -4.36765241622924808 0
vt -0.40074017643928528 -4.3649873733520508 0
vt -0.3236684501171112 -4.36308002471923832 0
vt -0.2463577389717102 -4.3619346618652344 0
# 504 texture coords

g polySurface2
usemtl Pared_Sala_1_ProBuilder_Default_URP1
s 1
f 1/1/1 2/2/2 3/3/3 4/4/4
f 5/5/5 6/6/6 7/7/7 8/8/8
f 9/9/9 1/10/10 4/11/11 10/12/12
f 6/13/13 11/14/14 12/15/15 7/16/16
f 13/17/17 9/18/18 10/19/19 14/20/20
f 11/21/21 15/22/22 16/23/23 12/24/24
f 17/25/25 13/26/26 14/27/27 18/28/28
f 15/29/29 19/30/30 20/31/31 16/32/32
f 21/33/33 17/34/34 18/35/35 22/36/36
f 19/37/37 23/38/38 24/39/39 20/40/40
f 25/41/41 21/42/42 22/43/43 26/44/44
f 23/45/45 27/46/46 28/47/47 24/48/48
f 29/49/49 25/50/50 26/51/51 30/52/52
f 27/53/53 31/54/54 32/55/55 28/56/56
f 33/57/57 29/58/58 30/59/59 34/60/60
f 31/61/61 35/62/62 36/63/63 32/64/64
f 37/65/65 33/66/66 34/67/67 38/68/68
f 35/69/69 39/70/70 40/71/71 36/72/72
f 41/73/73 37/74/74 38/75/75 42/76/76
f 39/77/77 43/78/78 44/79/79 40/80/80
f 45/81/81 41/82/82 42/83/83 46/84/84
f 43/85/85 47/86/86 48/87/87 44/88/88
f 49/89/89 45/90/90 46/91/91 50/92/92
f 47/93/93 51/94/94 52/95/95 48/96/96
f 53/97/97 49/98/98 50/99/99 54/100/100
f 51/101/101 55/102/102 56/103/103 52/104/104
f 57/105/105 53/106/106 54/107/107 58/108/108
f 55/109/109 59/110/110 60/111/111 56/112/112
f 61/113/113 57/114/114 58/115/115 62/116/116
f 59/117/117 63/118/118 64/119/119 60/120/120
f 65/121/121 61/122/122 62/123/123 66/124/124
f 63/125/125 67/126/126 68/127/127 64/128/128
f 69/129/129 65/130/130 66/131/131 70/132/132
f 67/133/133 71/134/134 72/135/135 68/136/136
f 73/137/137 69/138/138 70/139/139 74/140/140
f 71/141/141 75/142/142 76/143/143 72/144/144
f 77/145/145 73/146/146 74/147/147 78/148/148
f 75/149/149 79/150/150 80/151/151 76/152/152
f 81/153/153 77/154/154 78/155/155 82/156/156
f 79/157/157 83/158/158 84/159/159 80/160/160
f 85/161/161 81/162/162 82/163/163 86/164/164
f 83/165/165 87/166/166 88/167/167 84/168/168
f 89/169/169 85/170/170 86/171/171 90/172/172
f 87/173/173 91/174/174 92/175/175 88/176/176
f 93/177/177 89/178/178 90/179/179 94/180/180
f 91/181/181 93/182/182 94/183/183 92/184/184
f 95/185/185 96/186/186 97/187/187 98/188/188
f 96/189/189 99/190/190 100/191/191 97/192/192
f 98/235/193 97/236/194 101/193/195
f 101/193/196 102/194/197 100/237/198
f 102/194/199 103/195/200 100/237/201
f 103/195/202 104/196/203 100/237/204
f 100/237/205 104/196/206 97/236/207
f 104/196/208 105/197/209 97/236/210
f 105/197/211 106/198/212 97/236/213
f 106/198/214 107/199/215 97/236/216
f 107/199/217 108/200/218 97/236/219
f 108/200/220 109/201/221 97/236/222
f 109/201/223 110/202/224 97/236/225
f 110/202/226 111/203/227 97/236/228
f 111/203/229 8/204/230 97/236/231
f 8/204/232 7/205/233 97/236/234
f 7/205/235 12/206/236 97/236/237
f 12/206/238 16/207/239 97/236/240
f 16/207/241 20/208/242 97/236/243
f 20/208/244 24/209/245 97/236/246
f 24/209/247 28/210/248 97/236/249
f 28/210/250 32/211/251 97/236/252
f 32/211/253 36/212/254 97/236/255
f 36/212/256 40/213/257 97/236/258
f 40/213/259 44/214/260 97/236/261
f 44/214/262 48/215/263 97/236/264
f 48/215/265 52/216/266 97/236/267
f 52/216/268 56/217/269 97/236/270
f 56/217/271 60/218/272 97/236/273
f 60/218/274 64/219/275 97/236/276
f 64/219/277 68/220/278 97/236/279
f 68/220/280 72/221/281 97/236/282
f 72/221/283 76/222/284 97/236/285
f 76/222/286 80/223/287 97/236/288
f 80/223/289 84/224/290 97/236/291
f 84/224/292 88/225/293 97/236/294
f 88/225/295 92/226/296 97/236/297
f 92/226/298 94/227/299 97/236/300
f 94/227/301 90/228/302 97/236/303
f 90/228/304 86/229/305 97/236/306
f 86/229/307 82/230/308 97/236/309
f 102/194/310 101/193/311 172/504/312
f 172/504/313 101/193/314 170/503/315
f 170/503/316 101/193/317 168/502/318
f 82/230/319 78/231/320 97/236/321
f 168/502/322 101/193/323 166/501/324
f 166/501/325 101/193/326 164/500/327
f 164/500/328 101/193/329 162/499/330
f 78/231/331 74/232/332 97/236/333
f 162/499/334 101/193/335 160/498/336
f 160/498/337 101/193/338 158/497/339
f 158/497/340 101/193/341 156/496/342
f 156/496/343 101/193/344 154/495/345
f 74/232/346 70/233/347 97/236/348
f 154/495/349 101/193/350 152/494/351
f 152/494/352 101/193/353 150/493/354
f 150/493/355 101/193/356 148/492/357
f 70/233/358 66/234/359 97/236/360
f 148/492/361 101/193/362 146/491/363
f 146/491/364 101/193/365 144/490/366
f 144/490/367 101/193/368 142/489/369
f 142/489/370 101/193/371 140/488/372
f 66/234/373 62/464/374 97/236/375
f 140/488/376 101/193/377 138/487/378
f 138/487/379 101/193/380 136/486/381
f 62/464/382 58/465/383 97/236/384
f 136/486/385 101/193/386 134/485/387
f 58/465/388 54/466/389 97/236/390
f 134/485/391 101/193/392 132/484/393
f 132/484/394 101/193/395 130/483/396
f 54/466/397 50/467/398 97/236/399
f 130/483/400 101/193/401 128/482/402
f 50/467/403 46/468/404 97/236/405
f 97/236/406 46/468/407 101/193/408
f 46/468/409 42/469/410 101/193/411
f 42/469/412 38/470/413 101/193/414
f 38/470/415 34/471/416 101/193/417
f 34/471/418 30/472/419 101/193/420
f 30/472/421 26/473/422 101/193/423
f 26/473/424 22/474/425 101/193/426
f 22/474/427 18/475/428 101/193/429
f 18/475/430 14/476/431 101/193/432
f 14/476/433 10/477/434 101/193/435
f 10/477/436 4/478/437 101/193/438
f 4/478/439 3/479/440 101/193/441
f 3/479/442 124/480/443 101/193/444
f 124/480/445 126/481/446 101/193/447
f 126/481/448 128/482/449 101/193/450
f 122/282/451 99/238/452 121/281/453
f 121/281/454 99/238/455 120/280/456
f 120/280/457 99/238/458 119/279/459
f 122/282/460 121/281/461 95/240/462
f 121/281/463 171/423/464 95/240/465
f 171/423/466 169/424/467 95/240/468
f 169/424/469 167/425/470 95/240/471
f 167/425/472 165/426/473 95/240/474
f 165/426/475 163/427/476 95/240/477
f 163/427/478 161/428/479 95/240/480
f 161/428/481 159/429/482 95/240/483
f 159/429/484 157/430/485 95/240/486
f 157/430/487 155/431/488 95/240/489
f 155/431/490 153/432/491 95/240/492
f 153/432/493 151/433/494 95/240/495
f 151/433/496 149/434/497 95/240/498
f 149/434/499 147/435/500 95/240/501
f 147/435/502 145/436/503 95/240/504
f 145/436/505 143/437/506 95/240/507
f 143/437/508 141/438/509 95/240/510
f 141/438/511 139/439/512 95/240/513
f 139/439/514 137/440/515 95/240/516
f 137/440/517 135/441/518 95/240/519
f 135/441/520 133/442/521 95/240/522
f 133/442/523 131/443/524 95/240/525
f 131/443/526 129/444/527 95/240/528
f 129/444/529 127/445/530 95/240/531
f 127/445/532 125/446/533 95/240/534
f 125/446/535 123/447/536 95/240/537
f 123/447/538 2/448/539 95/240/540
f 2/448/541 1/449/542 95/240/543
f 1/449/544 9/450/545 95/240/546
f 9/450/547 13/451/548 95/240/549
f 95/240/550 13/451/551 96/239/552
f 13/451/553 17/452/554 96/239/555
f 17/452/556 21/453/557 96/239/558
f 21/453/559 25/454/560 96/239/561
f 25/454/562 29/455/563 96/239/564
f 29/455/565 33/456/566 96/239/567
f 33/456/568 37/457/569 96/239/570
f 37/457/571 41/458/572 96/239/573
f 41/458/574 45/459/575 96/239/576
f 45/459/577 49/460/578 96/239/579
f 49/460/580 53/461/581 96/239/582
f 53/461/583 57/462/584 96/239/585
f 57/462/586 61/463/587 96/239/588
f 61/463/589 65/241/590 96/239/591
f 65/241/592 69/242/593 96/239/594
f 69/242/595 73/243/596 96/239/597
f 73/243/598 77/244/599 96/239/600
f 77/244/601 81/245/602 96/239/603
f 81/245/604 85/246/605 96/239/606
f 99/238/607 96/239/608 119/279/609
f 119/279/610 96/239/611 118/278/612
f 118/278/613 96/239/614 117/277/615
f 117/277/616 96/239/617 116/276/618
f 116/276/619 96/239/620 115/275/621
f 115/275/622 96/239/623 114/274/624
f 114/274/625 96/239/626 113/273/627
f 113/273/628 96/239/629 112/272/630
f 112/272/631 96/239/632 5/271/633
f 5/271/634 96/239/635 6/270/636
f 6/270/637 96/239/638 11/269/639
f 11/269/640 96/239/641 15/268/642
f 15/268/643 96/239/644 19/267/645
f 19/267/646 96/239/647 23/266/648
f 23/266/649 96/239/650 27/265/651
f 27/265/652 96/239/653 31/264/654
f 31/264/655 96/239/656 35/263/657
f 35/263/658 96/239/659 39/262/660
f 39/262/661 96/239/662 43/261/663
f 43/261/664 96/239/665 47/260/666
f 47/260/667 96/239/668 51/259/669
f 51/259/670 96/239/671 55/258/672
f 55/258/673 96/239/674 59/257/675
f 59/257/676 96/239/677 63/256/678
f 63/256/679 96/239/680 67/255/681
f 67/255/682 96/239/683 71/254/684
f 71/254/685 96/239/686 75/253/687
f 75/253/688 96/239/689 79/252/690
f 79/252/691 96/239/692 83/251/693
f 83/251/694 96/239/695 87/250/696
f 87/250/697 96/239/698 91/249/699
f 91/249/700 96/239/701 93/248/702
f 93/248/703 96/239/704 89/247/705
f 85/246/706 89/247/707 96/239/708
f 112/283/709 5/284/710 8/285/711 111/286/712
f 2/287/713 123/288/714 124/289/715 3/290/716
f 113/291/717 112/292/718 111/293/719 110/294/720
f 123/295/721 125/296/722 126/297/723 124/298/724
f 114/299/725 113/300/726 110/301/727 109/302/728
f 125/303/729 127/304/730 128/305/731 126/306/732
f 115/307/733 114/308/734 109/309/735 108/310/736
f 127/311/737 129/312/738 130/313/739 128/314/740
f 116/315/741 115/316/742 108/317/743 107/318/744
f 129/319/745 131/320/746 132/321/747 130/322/748
f 117/323/749 116/324/750 107/325/751 106/326/752
f 131/327/753 133/328/754 134/329/755 132/330/756
f 118/331/757 117/332/758 106/333/759 105/334/760
f 133/335/761 135/336/762 136/337/763 134/338/764
f 119/339/765 118/340/766 105/341/767 104/342/768
f 135/343/769 137/344/770 138/345/771 136/346/772
f 137/347/773 139/348/774 140/349/775 138/350/776
f 139/351/777 141/352/778 142/353/779 140/354/780
f 141/355/781 143/356/782 144/357/783 142/358/784
f 143/359/785 145/360/786 146/361/787 144/362/788
f 145/363/789 147/364/790 148/365/791 146/366/792
f 147/367/793 149/368/794 150/369/795 148/370/796
f 149/371/797 151/372/798 152/373/799 150/374/800
f 151/375/801 153/376/802 154/377/803 152/378/804
f 153/379/805 155/380/806 156/381/807 154/382/808
f 99/383/809 122/384/810 101/193/811 100/385/812
f 155/386/813 157/387/814 158/388/815 156/389/816
f 157/390/817 159/391/818 160/392/819 158/393/820
f 159/394/821 161/395/822 162/396/823 160/397/824
f 161/398/825 163/399/826 164/400/827 162/401/828
f 163/402/829 165/403/830 166/404/831 164/405/832
f 165/406/833 167/407/834 168/408/835 166/409/836
f 167/410/837 169/411/838 170/412/839 168/413/840
f 169/414/841 171/415/842 172/416/843 170/417/844
f 171/418/845 121/419/846 102/420/847 172/421/848
f 122/384/849 95/422/850 98/235/851 101/193/852
f 103/195/853 102/194/854 104/196/855
f 102/420/856 121/419/857 119/339/858 104/342/859
f 121/281/860 120/280/861 119/279/862
#259 polygons

